 236 1
 213 2
 740 3
2362 4
3776 5
4491 6
4785 7
4746 8
4593 9
4313 10
4032 11
3675 12
3355 13
3084 14
2921 15
2732 16
2561 17
2476 18
2348 19
3838 20
3806 21
3779 22
3827 23
3813 24
3933 25
3958 26
3891 27
3821 28
3973 29
3963 30
3968 31
3883 32
4006 33
3988 34
4020 35
3997 36
4055 37
3921 38
4118 39
4093 40
4207 41
4030 42
4173 43
4212 44
4136 45
4202 46
4204 47
4217 48
4177 49
4293 50
4254 51
4362 52
4393 53
4238 54
4340 55
4316 56
4364 57
4259 58
4241 59
4438 60
4430 61
4369 62
4274 63
4323 64
4300 65
4273 66
4288 67
4425 68
4304 69
4340 70
4321 71
4279 72
4273 73
4283 74
4329 75
4293 76
4168 77
4262 78
4204 79
4235 80
4092 81
4211 82
4525 83
4315 84
4325 85
4393 86
4157 87
4222 88
4243 89
4209 90
4265 91
4083 92
4149 93
4240 94
4053 95
4228 96
4018 97
4159 98
4178 99
4114 100
4062 101
4236 102
4206 103
4208 104
4015 105
4106 106
4109 107
4062 108
4191 109
4055 110
4161 111
3988 112
4164 113
3975 114
3898 115
3985 116
4021 117
4007 118
3940 119
3942 120
3954 121
3870 122
3955 123
3907 124
3869 125
3980 126
3961 127
3986 128
4080 129
3822 130
3933 131
3879 132
3759 133
3844 134
3921 135
3704 136
3823 137
3740 138
3833 139
3821 140
3834 141
3691 142
3787 143
3849 144
3785 145
3779 146
3717 147
3703 148
3692 149
3739 150
3738 151
3571 152
3670 153
3668 154
3531 155
3652 156
3677 157
3477 158
3543 159
3607 160
3596 161
3540 162
3569 163
3536 164
3524 165
3606 166
3379 167
3574 168
3513 169
3397 170
3548 171
3488 172
3401 173
3448 174
3446 175
3419 176
3384 177
3365 178
3449 179
3418 180
3247 181
3306 182
3373 183
3321 184
3389 185
3291 186
3361 187
3353 188
3325 189
3356 190
3135 191
3233 192
3222 193
3225 194
3246 195
3154 196
3286 197
3165 198
3314 199
3241 200
3139 201
3168 202
3100 203
3171 204
3251 205
3215 206
3083 207
3165 208
3121 209
3096 210
3190 211
2999 212
3045 213
3153 214
2947 215
3002 216
3069 217
3011 218
3124 219
2988 220
2996 221
2952 222
2965 223
2953 224
3004 225
3067 226
2894 227
2910 228
2961 229
2943 230
2959 231
2892 232
2923 233
2948 234
2869 235
2948 236
2962 237
2864 238
2788 239
2838 240
2933 241
2853 242
2845 243
2812 244
2754 245
2834 246
2825 247
2833 248
2780 249
2775 250
2784 251
2788 252
2737 253
2759 254
2772 255
2696 256
2756 257
2738 258
2665 259
2646 260
2710 261
2658 262
2708 263
2731 264
2751 265
2748 266
2706 267
2779 268
2708 269
2629 270
2708 271
2695 272
2682 273
2590 274
2610 275
2579 276
2622 277
2600 278
2587 279
2548 280
2591 281
2547 282
2604 283
2534 284
2542 285
2497 286
2536 287
2472 288
2486 289
2455 290
2502 291
2522 292
2532 293
2457 294
2456 295
2485 296
2495 297
2515 298
2474 299
2487 300
2450 301
2447 302
2472 303
2401 304
2449 305
2476 306
2474 307
2432 308
2393 309
2484 310
2540 311
2449 312
2423 313
2344 314
2418 315
2371 316
2387 317
2466 318
2262 319
2365 320
2396 321
2381 322
2308 323
2367 324
2311 325
2305 326
2376 327
2334 328
2313 329
2355 330
2293 331
2358 332
2228 333
2347 334
2292 335
2343 336
2360 337
2317 338
2311 339
2260 340
2330 341
2263 342
2273 343
2222 344
2150 345
2191 346
2189 347
2189 348
2150 349
2201 350
2141 351
2193 352
2179 353
2120 354
2125 355
2119 356
2142 357
2165 358
2173 359
2148 360
2110 361
2162 362
2073 363
2087 364
2160 365
2128 366
2082 367
2194 368
2208 369
2178 370
2091 371
2085 372
2153 373
2079 374
2073 375
2010 376
2098 377
2085 378
2061 379
2072 380
2069 381
2078 382
1999 383
2033 384
1993 385
2099 386
2004 387
2108 388
1975 389
1948 390
1958 391
2063 392
2143 393
2025 394
2015 395
2014 396
1953 397
2034 398
1987 399
2100 400
1966 401
1982 402
2067 403
1985 404
1949 405
2019 406
2000 407
2018 408
1976 409
1940 410
1970 411
2039 412
1870 413
1976 414
1938 415
1889 416
1923 417
1933 418
1974 419
1876 420
1899 421
1958 422
1873 423
1911 424
1908 425
1863 426
1871 427
1893 428
1880 429
1776 430
1899 431
1835 432
1863 433
1843 434
1832 435
1829 436
1924 437
1855 438
1805 439
1825 440
1861 441
1930 442
1773 443
1805 444
1788 445
1775 446
1813 447
1848 448
1798 449
1928 450
1773 451
1835 452
1779 453
1759 454
1776 455
1805 456
1755 457
1735 458
1726 459
1708 460
1768 461
1733 462
1799 463
1760 464
1677 465
1715 466
1742 467
1696 468
1732 469
1785 470
1726 471
1721 472
1737 473
1752 474
1694 475
1729 476
1745 477
1734 478
1728 479
1684 480
1711 481
1727 482
1630 483
1698 484
1634 485
1633 486
1736 487
1718 488
1694 489
1683 490
1712 491
1699 492
1720 493
1598 494
1676 495
1664 496
1657 497
1727 498
1646 499
1654 500
1681 501
1622 502
1651 503
1690 504
1577 505
1592 506
1622 507
1650 508
1663 509
1579 510
1558 511
1615 512
1580 513
1571 514
1596 515
1570 516
1603 517
1604 518
1550 519
1664 520
1570 521
1531 522
1575 523
1569 524
1534 525
1571 526
1529 527
1592 528
1549 529
1586 530
1534 531
1542 532
1550 533
1450 534
1531 535
1544 536
1609 537
1491 538
1494 539
1460 540
1565 541
1472 542
1624 543
1521 544
1526 545
1490 546
1472 547
1497 548
1490 549
1501 550
1428 551
1527 552
1439 553
1529 554
1372 555
1479 556
1450 557
1447 558
1437 559
1484 560
1503 561
1435 562
1502 563
1358 564
1436 565
1485 566
1458 567
1460 568
1380 569
1409 570
1381 571
1424 572
1396 573
1355 574
1411 575
1455 576
1433 577
1390 578
1476 579
1322 580
1342 581
1426 582
1343 583
1399 584
1407 585
1385 586
1461 587
1359 588
1318 589
1339 590
1395 591
1356 592
1401 593
1448 594
1398 595
1414 596
1333 597
1323 598
1369 599
1328 600
1329 601
1329 602
1295 603
1294 604
1373 605
1334 606
1386 607
1334 608
1339 609
1382 610
1291 611
1315 612
1246 613
1317 614
1308 615
1294 616
1338 617
1301 618
1386 619
1279 620
1246 621
1335 622
1304 623
1267 624
1250 625
1247 626
1267 627
1345 628
1299 629
1281 630
1301 631
1271 632
1273 633
1245 634
1265 635
1293 636
1288 637
1226 638
1218 639
1267 640
1258 641
1230 642
1314 643
1224 644
1301 645
1283 646
1205 647
1254 648
1156 649
1211 650
1256 651
1194 652
1249 653
1276 654
1219 655
1208 656
1296 657
1223 658
1264 659
1152 660
1263 661
1263 662
1227 663
1156 664
1190 665
1156 666
1184 667
1134 668
1156 669
1248 670
1202 671
1206 672
1206 673
1194 674
1184 675
1212 676
1223 677
1177 678
1141 679
1108 680
1216 681
1083 682
1181 683
1126 684
1161 685
1183 686
1067 687
1177 688
1100 689
1154 690
1124 691
1255 692
1193 693
1135 694
1137 695
1118 696
1147 697
1163 698
1149 699
1099 700
1132 701
1161 702
1063 703
1091 704
1134 705
1138 706
1105 707
1074 708
1082 709
1096 710
1033 711
1163 712
1115 713
1109 714
1038 715
1085 716
1091 717
1081 718
1042 719
1043 720
1091 721
1087 722
1052 723
1132 724
1118 725
1144 726
1060 727
1055 728
1058 729
1119 730
1067 731
1074 732
1061 733
1108 734
1077 735
 992 736
1102 737
1091 738
1075 739
1096 740
1053 741
1038 742
1099 743
1049 744
1031 745
1103 746
1074 747
1009 748
1016 749
1046 750
1013 751
1060 752
1065 753
1093 754
 992 755
 989 756
 967 757
1010 758
1043 759
1015 760
 957 761
1015 762
 971 763
 950 764
1010 765
1019 766
 985 767
1039 768
 941 769
1025 770
1037 771
1022 772
 995 773
1046 774
1027 775
 968 776
 960 777
 920 778
 969 779
 971 780
1008 781
1057 782
1000 783
 949 784
 941 785
 987 786
 912 787
 978 788
 999 789
 954 790
 986 791
 954 792
1016 793
 970 794
 974 795
 946 796
 941 797
 957 798
 952 799
 981 800
 978 801
 932 802
 934 803
 941 804
 899 805
 896 806
 940 807
 925 808
 931 809
 958 810
 959 811
 952 812
 957 813
 934 814
 960 815
 952 816
 908 817
 938 818
 931 819
 936 820
 944 821
 978 822
 903 823
 933 824
 923 825
 933 826
 940 827
 932 828
 939 829
 901 830
 888 831
 917 832
 887 833
 973 834
 872 835
 867 836
 870 837
 888 838
 852 839
 901 840
 922 841
 905 842
 926 843
 891 844
 825 845
 859 846
 899 847
 869 848
 858 849
 858 850
 870 851
 845 852
 859 853
 864 854
 849 855
 804 856
 835 857
 813 858
 870 859
 872 860
 874 861
 804 862
 848 863
 840 864
 815 865
 817 866
 842 867
 822 868
 877 869
 877 870
 851 871
 882 872
 841 873
 852 874
 807 875
 872 876
 834 877
 861 878
 809 879
 837 880
 871 881
 824 882
 884 883
 878 884
 828 885
 831 886
 787 887
 838 888
 845 889
 783 890
 863 891
 818 892
 857 893
 840 894
 823 895
 818 896
 809 897
 812 898
 815 899
 815 900
 806 901
 756 902
 719 903
 814 904
 817 905
 819 906
 830 907
 800 908
 825 909
 734 910
 814 911
 765 912
 787 913
 804 914
 780 915
 782 916
 752 917
 827 918
 839 919
 787 920
 794 921
 780 922
 776 923
 765 924
 816 925
 801 926
 788 927
 749 928
 781 929
 784 930
 792 931
 766 932
 728 933
 783 934
 781 935
 758 936
 737 937
 750 938
 747 939
 737 940
 837 941
 760 942
 747 943
 723 944
 788 945
 744 946
 749 947
 796 948
 810 949
 758 950
 753 951
 733 952
 710 953
 717 954
 755 955
 738 956
 673 957
 736 958
 766 959
 744 960
 687 961
 732 962
 788 963
 724 964
 661 965
 731 966
 767 967
 739 968
 763 969
 770 970
 730 971
 736 972
 742 973
 709 974
 711 975
 698 976
 729 977
 759 978
 726 979
 774 980
 767 981
 705 982
 700 983
 687 984
 705 985
 691 986
 720 987
 701 988
 741 989
 744 990
 663 991
 678 992
 673 993
 735 994
 672 995
 673 996
 688 997
 715 998
 669 999
 672 1000
 657 1001
 665 1002
 661 1003
 756 1004
 615 1005
 660 1006
 675 1007
 679 1008
 658 1009
 709 1010
 695 1011
 717 1012
 691 1013
 682 1014
 658 1015
 690 1016
 677 1017
 731 1018
 669 1019
 683 1020
 628 1021
 656 1022
 656 1023
 608 1024
 690 1025
 696 1026
 662 1027
 685 1028
 677 1029
 679 1030
 638 1031
 694 1032
 649 1033
 651 1034
 671 1035
 651 1036
 678 1037
 607 1038
 614 1039
 632 1040
 649 1041
 662 1042
 723 1043
 663 1044
 711 1045
 662 1046
 639 1047
 620 1048
 649 1049
 669 1050
 646 1051
 615 1052
 697 1053
 655 1054
 618 1055
 625 1056
 594 1057
 647 1058
 634 1059
 628 1060
 649 1061
 618 1062
 672 1063
 654 1064
 580 1065
 638 1066
 627 1067
 661 1068
 654 1069
 675 1070
 610 1071
 649 1072
 628 1073
 617 1074
 567 1075
 642 1076
 582 1077
 620 1078
 623 1079
 581 1080
 618 1081
 645 1082
 601 1083
 616 1084
 646 1085
 596 1086
 629 1087
 632 1088
 591 1089
 627 1090
 577 1091
 613 1092
 583 1093
 597 1094
 583 1095
 603 1096
 597 1097
 609 1098
 593 1099
 580 1100
 630 1101
 602 1102
 550 1103
 596 1104
 581 1105
 577 1106
 561 1107
 586 1108
 601 1109
 593 1110
 562 1111
 565 1112
 571 1113
 580 1114
 568 1115
 598 1116
 613 1117
 626 1118
 607 1119
 567 1120
 621 1121
 565 1122
 664 1123
 530 1124
 596 1125
 562 1126
 565 1127
 561 1128
 569 1129
 565 1130
 549 1131
 572 1132
 534 1133
 533 1134
 570 1135
 568 1136
 568 1137
 580 1138
 554 1139
 559 1140
 542 1141
 582 1142
 581 1143
 557 1144
 566 1145
 577 1146
 521 1147
 512 1148
 544 1149
 531 1150
 520 1151
 552 1152
 570 1153
 514 1154
 557 1155
 543 1156
 504 1157
 592 1158
 525 1159
 536 1160
 585 1161
 521 1162
 556 1163
 562 1164
 492 1165
 516 1166
 543 1167
 507 1168
 525 1169
 574 1170
 560 1171
 556 1172
 588 1173
 462 1174
 576 1175
 547 1176
 546 1177
 517 1178
 516 1179
 534 1180
 537 1181
 591 1182
 525 1183
 543 1184
 497 1185
 528 1186
 466 1187
 518 1188
 514 1189
 534 1190
 498 1191
 536 1192
 533 1193
 514 1194
 542 1195
 518 1196
 479 1197
 475 1198
 544 1199
 518 1200
 524 1201
 544 1202
 523 1203
 535 1204
 518 1205
 547 1206
 492 1207
 490 1208
 487 1209
 529 1210
 527 1211
 491 1212
 462 1213
 561 1214
 509 1215
 463 1216
 458 1217
 489 1218
 489 1219
 509 1220
 511 1221
 514 1222
 469 1223
 479 1224
 545 1225
 450 1226
 461 1227
 457 1228
 532 1229
 483 1230
 476 1231
 520 1232
 524 1233
 509 1234
 492 1235
 460 1236
 463 1237
 461 1238
 475 1239
 503 1240
 495 1241
 486 1242
 461 1243
 510 1244
 526 1245
 520 1246
 464 1247
 464 1248
 492 1249
 497 1250
 489 1251
 440 1252
 460 1253
 475 1254
 461 1255
 468 1256
 433 1257
 491 1258
 472 1259
 470 1260
 458 1261
 470 1262
 495 1263
 451 1264
 486 1265
 456 1266
 491 1267
 476 1268
 450 1269
 503 1270
 459 1271
 474 1272
 467 1273
 406 1274
 460 1275
 413 1276
 457 1277
 454 1278
 483 1279
 434 1280
 435 1281
 430 1282
 455 1283
 481 1284
 438 1285
 468 1286
 421 1287
 490 1288
 483 1289
 485 1290
 460 1291
 465 1292
 469 1293
 439 1294
 447 1295
 475 1296
 443 1297
 421 1298
 438 1299
 453 1300
 452 1301
 500 1302
 451 1303
 447 1304
 420 1305
 442 1306
 447 1307
 428 1308
 423 1309
 427 1310
 468 1311
 450 1312
 474 1313
 436 1314
 436 1315
 431 1316
 443 1317
 445 1318
 465 1319
 454 1320
 455 1321
 488 1322
 484 1323
 454 1324
 423 1325
 447 1326
 406 1327
 421 1328
 449 1329
 420 1330
 400 1331
 418 1332
 434 1333
 462 1334
 411 1335
 386 1336
 428 1337
 431 1338
 444 1339
 428 1340
 441 1341
 437 1342
 401 1343
 390 1344
 423 1345
 426 1346
 419 1347
 390 1348
 403 1349
 412 1350
 418 1351
 388 1352
 407 1353
 417 1354
 442 1355
 398 1356
 417 1357
 444 1358
 411 1359
 445 1360
 392 1361
 385 1362
 395 1363
 440 1364
 403 1365
 407 1366
 399 1367
 366 1368
 404 1369
 401 1370
 401 1371
 386 1372
 386 1373
 377 1374
 414 1375
 403 1376
 437 1377
 465 1378
 405 1379
 441 1380
 374 1381
 349 1382
 424 1383
 377 1384
 395 1385
 407 1386
 398 1387
 432 1388
 406 1389
 402 1390
 422 1391
 391 1392
 399 1393
 361 1394
 394 1395
 408 1396
 369 1397
 387 1398
 412 1399
 394 1400
 380 1401
 376 1402
 398 1403
 397 1404
 397 1405
 422 1406
 391 1407
 385 1408
 423 1409
 433 1410
 374 1411
 369 1412
 388 1413
 378 1414
 394 1415
 409 1416
 369 1417
 374 1418
 397 1419
 369 1420
 343 1421
 363 1422
 372 1423
 379 1424
 382 1425
 423 1426
 394 1427
 370 1428
 402 1429
 402 1430
 377 1431
 363 1432
 365 1433
 360 1434
 359 1435
 378 1436
 363 1437
 405 1438
 377 1439
 347 1440
 376 1441
 367 1442
 386 1443
 393 1444
 358 1445
 365 1446
 381 1447
 370 1448
 353 1449
 357 1450
 341 1451
 323 1452
 314 1453
 400 1454
 400 1455
 361 1456
 359 1457
 356 1458
 340 1459
 379 1460
 366 1461
 367 1462
 359 1463
 358 1464
 342 1465
 338 1466
 353 1467
 331 1468
 335 1469
 346 1470
 379 1471
 362 1472
 371 1473
 345 1474
 369 1475
 378 1476
 349 1477
 339 1478
 360 1479
 338 1480
 335 1481
 363 1482
 352 1483
 346 1484
 358 1485
 344 1486
 339 1487
 392 1488
 361 1489
 360 1490
 346 1491
 328 1492
 350 1493
 378 1494
 380 1495
 348 1496
 352 1497
 358 1498
 337 1499
 341 1500
 349 1501
 344 1502
 366 1503
 322 1504
 328 1505
 330 1506
 322 1507
 306 1508
 334 1509
 326 1510
 355 1511
 327 1512
 312 1513
 327 1514
 332 1515
 327 1516
 308 1517
 330 1518
 306 1519
 352 1520
 341 1521
 324 1522
 306 1523
 347 1524
 318 1525
 360 1526
 337 1527
 360 1528
 344 1529
 357 1530
 328 1531
 301 1532
 360 1533
 302 1534
 319 1535
 342 1536
 303 1537
 321 1538
 342 1539
 313 1540
 331 1541
 316 1542
 314 1543
 314 1544
 325 1545
 311 1546
 335 1547
 296 1548
 346 1549
 328 1550
 318 1551
 299 1552
 320 1553
 328 1554
 310 1555
 304 1556
 318 1557
 331 1558
 341 1559
 331 1560
 322 1561
 309 1562
 287 1563
 300 1564
 332 1565
 323 1566
 309 1567
 327 1568
 313 1569
 302 1570
 310 1571
 301 1572
 312 1573
 310 1574
 312 1575
 277 1576
 304 1577
 338 1578
 299 1579
 298 1580
 310 1581
 329 1582
 307 1583
 274 1584
 327 1585
 303 1586
 298 1587
 280 1588
 306 1589
 327 1590
 269 1591
 291 1592
 279 1593
 298 1594
 293 1595
 323 1596
 281 1597
 307 1598
 277 1599
 299 1600
 264 1601
 305 1602
 310 1603
 290 1604
 313 1605
 326 1606
 286 1607
 310 1608
 289 1609
 306 1610
 284 1611
 318 1612
 293 1613
 310 1614
 287 1615
 282 1616
 283 1617
 302 1618
 295 1619
 304 1620
 320 1621
 272 1622
 279 1623
 289 1624
 269 1625
 283 1626
 274 1627
 315 1628
 290 1629
 291 1630
 317 1631
 289 1632
 267 1633
 287 1634
 285 1635
 303 1636
 287 1637
 265 1638
 277 1639
 266 1640
 298 1641
 273 1642
 294 1643
 289 1644
 278 1645
 266 1646
 270 1647
 256 1648
 294 1649
 280 1650
 264 1651
 271 1652
 300 1653
 288 1654
 277 1655
 278 1656
 286 1657
 262 1658
 282 1659
 277 1660
 271 1661
 273 1662
 265 1663
 268 1664
 263 1665
 265 1666
 252 1667
 290 1668
 260 1669
 244 1670
 255 1671
 288 1672
 296 1673
 277 1674
 301 1675
 273 1676
 280 1677
 290 1678
 267 1679
 246 1680
 278 1681
 281 1682
 294 1683
 275 1684
 279 1685
 264 1686
 265 1687
 291 1688
 305 1689
 249 1690
 243 1691
 286 1692
 271 1693
 256 1694
 251 1695
 223 1696
 279 1697
 267 1698
 288 1699
 268 1700
 254 1701
 281 1702
 263 1703
 250 1704
 270 1705
 270 1706
 270 1707
 278 1708
 233 1709
 263 1710
 275 1711
 252 1712
 264 1713
 256 1714
 232 1715
 274 1716
 255 1717
 262 1718
 245 1719
 278 1720
 273 1721
 256 1722
 247 1723
 270 1724
 250 1725
 263 1726
 257 1727
 296 1728
 279 1729
 246 1730
 276 1731
 273 1732
 277 1733
 265 1734
 247 1735
 237 1736
 226 1737
 263 1738
 249 1739
 241 1740
 255 1741
 250 1742
 257 1743
 247 1744
 258 1745
 200 1746
 257 1747
 252 1748
 249 1749
 251 1750
 248 1751
 236 1752
 263 1753
 235 1754
 251 1755
 228 1756
 252 1757
 269 1758
 218 1759
 278 1760
 247 1761
 233 1762
 249 1763
 249 1764
 255 1765
 244 1766
 278 1767
 242 1768
 224 1769
 259 1770
 259 1771
 236 1772
 226 1773
 222 1774
 227 1775
 255 1776
 236 1777
 229 1778
 232 1779
 236 1780
 205 1781
 242 1782
 235 1783
 273 1784
 239 1785
 255 1786
 239 1787
 225 1788
 215 1789
 249 1790
 243 1791
 239 1792
 253 1793
 249 1794
 268 1795
 204 1796
 231 1797
 231 1798
 252 1799
 255 1800
 228 1801
 222 1802
 237 1803
 246 1804
 232 1805
 220 1806
 239 1807
 227 1808
 218 1809
 228 1810
 246 1811
 212 1812
 245 1813
 212 1814
 249 1815
 208 1816
 225 1817
 232 1818
 206 1819
 248 1820
 229 1821
 219 1822
 203 1823
 218 1824
 231 1825
 230 1826
 248 1827
 207 1828
 230 1829
 233 1830
 222 1831
 228 1832
 209 1833
 224 1834
 212 1835
 191 1836
 202 1837
 240 1838
 186 1839
 219 1840
 204 1841
 223 1842
 248 1843
 213 1844
 203 1845
 200 1846
 224 1847
 220 1848
 227 1849
 212 1850
 218 1851
 216 1852
 212 1853
 196 1854
 208 1855
 232 1856
 242 1857
 222 1858
 216 1859
 195 1860
 206 1861
 229 1862
 224 1863
 236 1864
 218 1865
 218 1866
 192 1867
 195 1868
 210 1869
 197 1870
 220 1871
 214 1872
 204 1873
 220 1874
 224 1875
 227 1876
 212 1877
 212 1878
 206 1879
 227 1880
 215 1881
 191 1882
 194 1883
 188 1884
 197 1885
 204 1886
 220 1887
 188 1888
 191 1889
 198 1890
 214 1891
 196 1892
 231 1893
 213 1894
 234 1895
 204 1896
 212 1897
 198 1898
 232 1899
 207 1900
 220 1901
 211 1902
 202 1903
 207 1904
 215 1905
 203 1906
 205 1907
 176 1908
 224 1909
 196 1910
 173 1911
 193 1912
 209 1913
 179 1914
 198 1915
 197 1916
 188 1917
 193 1918
 183 1919
 215 1920
 195 1921
 220 1922
 200 1923
 197 1924
 199 1925
 211 1926
 223 1927
 181 1928
 165 1929
 190 1930
 202 1931
 187 1932
 200 1933
 195 1934
 213 1935
 206 1936
 188 1937
 200 1938
 184 1939
 194 1940
 178 1941
 191 1942
 189 1943
 196 1944
 183 1945
 201 1946
 215 1947
 207 1948
 199 1949
 188 1950
 199 1951
 180 1952
 197 1953
 189 1954
 190 1955
 195 1956
 189 1957
 179 1958
 173 1959
 187 1960
 195 1961
 189 1962
 205 1963
 195 1964
 205 1965
 182 1966
 172 1967
 182 1968
 187 1969
 196 1970
 194 1971
 190 1972
 169 1973
 199 1974
 182 1975
 193 1976
 172 1977
 174 1978
 188 1979
 191 1980
 188 1981
 184 1982
 189 1983
 201 1984
 195 1985
 173 1986
 159 1987
 168 1988
 175 1989
 165 1990
 190 1991
 198 1992
 180 1993
 178 1994
 189 1995
 169 1996
 196 1997
 189 1998
 193 1999
 173 2000
 150 2001
 146 2002
 172 2003
 183 2004
 198 2005
 186 2006
 173 2007
 183 2008
 176 2009
 195 2010
 186 2011
 169 2012
 168 2013
 191 2014
 165 2015
 165 2016
 164 2017
 193 2018
 180 2019
 193 2020
 196 2021
 178 2022
 180 2023
 173 2024
 186 2025
 176 2026
 146 2027
 183 2028
 190 2029
 192 2030
 182 2031
 188 2032
 166 2033
 163 2034
 177 2035
 180 2036
 172 2037
 169 2038
 180 2039
 170 2040
 165 2041
 184 2042
 153 2043
 184 2044
 182 2045
 171 2046
 197 2047
 166 2048
 179 2049
 175 2050
 187 2051
 199 2052
 164 2053
 166 2054
 160 2055
 152 2056
 171 2057
 135 2058
 155 2059
 154 2060
 182 2061
 141 2062
 168 2063
 185 2064
 181 2065
 170 2066
 163 2067
 157 2068
 148 2069
 167 2070
 150 2071
 151 2072
 165 2073
 159 2074
 164 2075
 145 2076
 168 2077
 160 2078
 154 2079
 175 2080
 146 2081
 129 2082
 161 2083
 155 2084
 156 2085
 179 2086
 165 2087
 145 2088
 188 2089
 167 2090
 172 2091
 157 2092
 162 2093
 144 2094
 175 2095
 154 2096
 150 2097
 133 2098
 147 2099
 162 2100
 171 2101
 168 2102
 134 2103
 139 2104
 156 2105
 162 2106
 162 2107
 162 2108
 148 2109
 152 2110
 181 2111
 143 2112
 163 2113
 164 2114
 163 2115
 169 2116
 138 2117
 190 2118
 164 2119
 137 2120
 141 2121
 169 2122
 136 2123
 157 2124
 179 2125
 171 2126
 140 2127
 158 2128
 142 2129
 147 2130
 155 2131
 151 2132
 161 2133
 158 2134
 148 2135
 140 2136
 136 2137
 152 2138
 138 2139
 159 2140
 154 2141
 148 2142
 149 2143
 166 2144
 143 2145
 136 2146
 154 2147
 150 2148
 144 2149
 154 2150
 168 2151
 141 2152
 151 2153
 120 2154
 131 2155
 133 2156
 144 2157
 154 2158
 167 2159
 122 2160
 125 2161
 129 2162
 166 2163
 151 2164
 146 2165
 151 2166
 143 2167
 127 2168
 139 2169
 125 2170
 154 2171
 159 2172
 140 2173
 148 2174
 161 2175
 133 2176
 140 2177
 130 2178
 136 2179
 144 2180
 157 2181
 139 2182
 141 2183
 143 2184
 162 2185
 145 2186
 134 2187
 124 2188
 137 2189
 140 2190
 126 2191
 142 2192
 148 2193
 168 2194
 139 2195
 146 2196
 147 2197
 157 2198
 162 2199
 153 2200
 140 2201
 154 2202
 151 2203
 128 2204
 123 2205
 130 2206
 144 2207
 151 2208
 150 2209
 136 2210
 136 2211
 131 2212
 128 2213
 129 2214
 134 2215
 147 2216
 139 2217
 131 2218
 149 2219
 139 2220
 134 2221
 155 2222
 146 2223
 139 2224
 142 2225
 139 2226
 136 2227
 143 2228
 126 2229
 167 2230
 142 2231
 142 2232
 139 2233
 149 2234
 137 2235
 117 2236
 136 2237
 142 2238
 143 2239
 130 2240
 129 2241
 131 2242
 134 2243
 132 2244
 114 2245
 121 2246
 150 2247
 135 2248
 145 2249
 137 2250
 141 2251
 133 2252
 138 2253
 129 2254
 131 2255
 153 2256
 140 2257
 130 2258
 135 2259
 126 2260
 125 2261
 126 2262
 138 2263
 125 2264
 115 2265
 146 2266
 112 2267
 134 2268
 141 2269
 141 2270
 139 2271
 124 2272
 129 2273
 115 2274
 100 2275
 123 2276
 146 2277
 123 2278
 111 2279
 141 2280
 137 2281
 110 2282
 125 2283
 118 2284
 139 2285
 134 2286
 166 2287
 123 2288
 117 2289
 119 2290
 123 2291
 122 2292
 155 2293
 116 2294
 134 2295
 125 2296
 118 2297
 115 2298
 131 2299
 127 2300
 121 2301
 119 2302
 125 2303
 127 2304
 118 2305
 127 2306
 131 2307
 122 2308
 118 2309
 113 2310
 130 2311
 140 2312
 123 2313
 136 2314
 119 2315
 133 2316
 140 2317
 131 2318
 109 2319
 119 2320
 104 2321
 129 2322
 118 2323
 119 2324
 108 2325
 122 2326
 134 2327
 133 2328
 110 2329
 126 2330
 119 2331
 130 2332
 125 2333
 119 2334
 109 2335
 114 2336
 121 2337
 122 2338
 124 2339
 114 2340
 108 2341
 115 2342
 113 2343
 138 2344
 110 2345
 124 2346
 109 2347
 126 2348
 117 2349
 119 2350
 127 2351
 104 2352
 135 2353
 130 2354
 118 2355
  94 2356
 136 2357
 117 2358
  98 2359
 116 2360
 129 2361
 129 2362
 125 2363
 118 2364
  96 2365
  92 2366
 132 2367
 100 2368
 122 2369
 125 2370
 112 2371
 124 2372
 115 2373
 120 2374
 122 2375
 121 2376
 107 2377
 109 2378
 124 2379
 111 2380
 135 2381
 108 2382
 102 2383
 133 2384
 120 2385
 117 2386
 106 2387
  94 2388
 108 2389
 107 2390
  98 2391
 124 2392
 107 2393
 124 2394
  99 2395
 121 2396
 100 2397
  90 2398
 112 2399
 111 2400
 110 2401
 128 2402
 108 2403
 104 2404
 111 2405
 118 2406
  98 2407
 121 2408
  91 2409
  99 2410
 108 2411
 113 2412
 124 2413
 105 2414
 120 2415
 115 2416
 111 2417
 108 2418
 108 2419
 110 2420
 105 2421
 106 2422
 132 2423
  84 2424
  93 2425
 106 2426
 114 2427
 116 2428
 115 2429
 112 2430
 104 2431
 101 2432
  98 2433
 124 2434
 114 2435
 108 2436
 113 2437
 113 2438
 102 2439
 109 2440
 112 2441
 108 2442
 106 2443
 107 2444
 115 2445
 106 2446
 112 2447
 111 2448
 102 2449
 120 2450
  90 2451
  98 2452
  96 2453
 108 2454
 107 2455
 103 2456
 117 2457
 107 2458
 100 2459
 117 2460
 117 2461
 128 2462
 100 2463
 107 2464
 111 2465
 106 2466
 110 2467
  94 2468
 124 2469
 118 2470
  89 2471
 105 2472
 110 2473
  99 2474
 108 2475
 127 2476
 100 2477
 110 2478
  97 2479
 103 2480
 107 2481
 105 2482
 104 2483
 117 2484
 105 2485
 125 2486
 112 2487
 108 2488
 104 2489
 127 2490
  93 2491
 114 2492
 113 2493
 105 2494
 132 2495
 103 2496
 112 2497
 103 2498
  98 2499
  83 2500
  93 2501
  92 2502
 105 2503
 106 2504
  99 2505
  94 2506
  90 2507
 104 2508
  96 2509
  93 2510
 103 2511
  94 2512
  98 2513
 107 2514
 105 2515
 105 2516
 105 2517
  93 2518
 102 2519
  83 2520
  87 2521
  89 2522
 110 2523
  97 2524
 101 2525
  90 2526
 107 2527
  93 2528
  85 2529
 103 2530
  98 2531
  81 2532
 101 2533
  91 2534
  86 2535
  94 2536
  89 2537
  92 2538
  89 2539
  95 2540
  88 2541
 105 2542
  95 2543
 100 2544
  89 2545
  81 2546
 113 2547
 105 2548
  79 2549
 100 2550
 106 2551
  81 2552
 101 2553
  96 2554
  91 2555
  88 2556
  83 2557
  81 2558
  83 2559
  84 2560
 100 2561
  94 2562
 105 2563
  76 2564
  93 2565
  91 2566
 102 2567
  94 2568
  97 2569
  91 2570
  96 2571
  93 2572
 110 2573
  90 2574
 107 2575
  95 2576
  97 2577
  88 2578
  93 2579
  80 2580
  84 2581
  88 2582
  94 2583
  90 2584
 117 2585
  93 2586
  80 2587
  88 2588
 111 2589
  90 2590
 113 2591
  97 2592
 112 2593
  88 2594
  71 2595
  79 2596
  68 2597
  77 2598
  85 2599
  92 2600
  81 2601
  89 2602
  90 2603
  77 2604
  84 2605
  92 2606
 100 2607
 112 2608
  92 2609
  85 2610
 107 2611
  75 2612
  86 2613
  98 2614
  90 2615
  99 2616
  73 2617
  83 2618
  95 2619
  99 2620
 102 2621
  83 2622
 116 2623
  83 2624
 100 2625
  99 2626
  87 2627
  86 2628
  81 2629
 101 2630
  78 2631
 105 2632
  86 2633
  97 2634
  90 2635
  83 2636
 100 2637
  77 2638
  80 2639
  82 2640
  92 2641
  84 2642
  98 2643
  85 2644
  93 2645
  86 2646
  76 2647
  84 2648
  92 2649
  82 2650
  91 2651
  81 2652
  84 2653
  93 2654
  90 2655
  88 2656
  81 2657
  96 2658
  81 2659
  76 2660
  85 2661
  98 2662
  84 2663
  79 2664
  88 2665
  77 2666
  95 2667
  90 2668
  62 2669
  83 2670
  83 2671
  95 2672
  81 2673
  69 2674
  82 2675
  84 2676
  80 2677
  84 2678
  83 2679
  78 2680
  80 2681
  68 2682
  76 2683
  75 2684
  68 2685
  84 2686
  79 2687
  76 2688
  79 2689
  72 2690
  82 2691
  82 2692
  75 2693
  90 2694
  92 2695
  70 2696
  88 2697
  65 2698
  83 2699
  82 2700
  63 2701
  81 2702
  82 2703
  78 2704
  74 2705
  75 2706
  80 2707
  74 2708
  83 2709
  83 2710
  82 2711
  67 2712
  82 2713
  77 2714
  85 2715
  69 2716
  88 2717
  67 2718
  76 2719
  72 2720
  66 2721
  68 2722
  84 2723
  75 2724
  73 2725
  92 2726
  83 2727
  92 2728
  65 2729
  74 2730
  60 2731
  75 2732
  81 2733
  75 2734
  67 2735
  70 2736
  86 2737
  67 2738
  78 2739
  76 2740
  72 2741
  74 2742
  78 2743
  52 2744
  74 2745
  76 2746
  75 2747
  82 2748
  86 2749
  76 2750
  92 2751
  83 2752
  68 2753
  76 2754
  75 2755
  87 2756
  79 2757
  69 2758
  82 2759
  76 2760
  73 2761
  78 2762
  69 2763
  74 2764
  57 2765
  63 2766
  71 2767
  77 2768
  79 2769
  82 2770
  76 2771
  66 2772
  70 2773
  72 2774
  77 2775
  69 2776
  68 2777
  74 2778
  88 2779
  75 2780
  75 2781
  65 2782
  80 2783
  80 2784
  78 2785
  69 2786
  68 2787
  71 2788
  68 2789
  69 2790
  82 2791
  77 2792
  78 2793
  73 2794
  85 2795
  79 2796
  65 2797
  68 2798
  61 2799
  80 2800
  83 2801
  85 2802
  73 2803
  71 2804
  66 2805
  78 2806
  64 2807
  77 2808
  62 2809
  67 2810
  61 2811
  63 2812
  74 2813
  65 2814
  71 2815
  87 2816
  64 2817
  68 2818
  66 2819
  81 2820
  76 2821
  61 2822
  72 2823
  70 2824
  65 2825
  62 2826
  57 2827
  57 2828
  73 2829
  79 2830
  75 2831
  61 2832
  72 2833
  75 2834
  87 2835
  56 2836
  60 2837
  94 2838
  75 2839
  72 2840
  81 2841
  78 2842
  67 2843
  57 2844
  66 2845
  58 2846
  64 2847
  82 2848
  72 2849
  89 2850
  70 2851
  68 2852
  49 2853
  60 2854
  64 2855
  74 2856
  68 2857
  62 2858
  63 2859
  71 2860
  60 2861
  55 2862
  91 2863
  64 2864
  68 2865
  55 2866
  71 2867
  69 2868
  78 2869
  72 2870
  59 2871
  65 2872
  66 2873
  80 2874
  71 2875
  58 2876
  73 2877
  54 2878
  69 2879
  70 2880
  72 2881
  67 2882
  84 2883
  64 2884
  51 2885
  52 2886
  64 2887
  67 2888
  61 2889
  63 2890
  63 2891
  60 2892
  61 2893
  63 2894
  64 2895
  60 2896
  61 2897
  57 2898
  59 2899
  73 2900
  53 2901
  50 2902
  72 2903
  55 2904
  71 2905
  61 2906
  68 2907
  74 2908
  72 2909
  67 2910
  77 2911
  71 2912
  59 2913
  60 2914
  60 2915
  73 2916
  69 2917
  61 2918
  70 2919
  57 2920
  68 2921
  58 2922
  60 2923
  59 2924
  56 2925
  66 2926
  62 2927
  58 2928
  55 2929
  54 2930
  56 2931
  74 2932
  49 2933
  63 2934
  56 2935
  59 2936
  70 2937
  55 2938
  51 2939
  71 2940
  48 2941
  65 2942
  78 2943
  62 2944
  60 2945
  74 2946
  72 2947
  60 2948
  69 2949
  49 2950
  54 2951
  61 2952
  59 2953
  73 2954
  57 2955
  71 2956
  62 2957
  61 2958
  53 2959
  58 2960
  64 2961
  51 2962
  66 2963
  73 2964
  51 2965
  68 2966
  72 2967
  56 2968
  57 2969
  65 2970
  53 2971
  60 2972
  65 2973
  52 2974
  50 2975
  57 2976
  66 2977
  58 2978
  66 2979
  64 2980
  56 2981
  58 2982
  56 2983
  67 2984
  46 2985
  45 2986
  56 2987
  66 2988
  57 2989
  65 2990
  70 2991
  44 2992
  57 2993
  63 2994
  57 2995
  58 2996
  61 2997
  69 2998
  50 2999
  57 3000
  75 3001
  44 3002
  53 3003
  53 3004
  47 3005
  58 3006
  54 3007
  48 3008
  61 3009
  68 3010
  56 3011
  57 3012
  64 3013
  70 3014
  54 3015
  73 3016
  51 3017
  55 3018
  45 3019
  58 3020
  71 3021
  48 3022
  46 3023
  49 3024
  61 3025
  50 3026
  57 3027
  56 3028
  70 3029
  46 3030
  59 3031
  60 3032
  55 3033
  59 3034
  55 3035
  60 3036
  54 3037
  62 3038
  44 3039
  62 3040
  50 3041
  45 3042
  57 3043
  50 3044
  54 3045
  62 3046
  67 3047
  61 3048
  52 3049
  56 3050
  53 3051
  55 3052
  50 3053
  54 3054
  56 3055
  51 3056
  61 3057
  43 3058
  66 3059
  55 3060
  46 3061
  58 3062
  46 3063
  53 3064
  53 3065
  38 3066
  60 3067
  61 3068
  48 3069
  60 3070
  54 3071
  54 3072
  56 3073
  74 3074
  53 3075
  53 3076
  55 3077
  51 3078
  62 3079
  58 3080
  46 3081
  52 3082
  41 3083
  68 3084
  45 3085
  45 3086
  59 3087
  59 3088
  47 3089
  53 3090
  58 3091
  39 3092
  55 3093
  50 3094
  72 3095
  47 3096
  48 3097
  48 3098
  50 3099
  49 3100
  49 3101
  39 3102
  54 3103
  41 3104
  44 3105
  48 3106
  48 3107
  50 3108
  59 3109
  52 3110
  60 3111
  51 3112
  56 3113
  53 3114
  58 3115
  51 3116
  46 3117
  53 3118
  51 3119
  48 3120
  49 3121
  38 3122
  50 3123
  57 3124
  54 3125
  51 3126
  40 3127
  62 3128
  53 3129
  46 3130
  42 3131
  38 3132
  56 3133
  49 3134
  54 3135
  48 3136
  40 3137
  41 3138
  56 3139
  52 3140
  57 3141
  49 3142
  39 3143
  37 3144
  39 3145
  59 3146
  42 3147
  49 3148
  50 3149
  56 3150
  57 3151
  44 3152
  53 3153
  52 3154
  48 3155
  56 3156
  63 3157
  40 3158
  44 3159
  48 3160
  61 3161
  44 3162
  41 3163
  59 3164
  37 3165
  46 3166
  42 3167
  41 3168
  51 3169
  57 3170
  37 3171
  45 3172
  44 3173
  47 3174
  63 3175
  39 3176
  54 3177
  43 3178
  44 3179
  39 3180
  49 3181
  46 3182
  48 3183
  53 3184
  41 3185
  46 3186
  53 3187
  41 3188
  42 3189
  51 3190
  45 3191
  52 3192
  40 3193
  49 3194
  42 3195
  39 3196
  40 3197
  50 3198
  42 3199
  48 3200
  48 3201
  43 3202
  46 3203
  45 3204
  50 3205
  48 3206
  31 3207
  53 3208
  51 3209
  60 3210
  42 3211
  49 3212
  52 3213
  43 3214
  38 3215
  31 3216
  32 3217
  46 3218
  41 3219
  38 3220
  38 3221
  52 3222
  43 3223
  49 3224
  47 3225
  37 3226
  42 3227
  56 3228
  40 3229
  58 3230
  47 3231
  38 3232
  58 3233
  45 3234
  48 3235
  40 3236
  40 3237
  46 3238
  43 3239
  62 3240
  53 3241
  57 3242
  44 3243
  41 3244
  53 3245
  38 3246
  54 3247
  40 3248
  43 3249
  47 3250
  42 3251
  41 3252
  40 3253
  50 3254
  44 3255
  33 3256
  56 3257
  30 3258
  45 3259
  46 3260
  38 3261
  45 3262
  44 3263
  41 3264
  44 3265
  57 3266
  47 3267
  46 3268
  46 3269
  52 3270
  53 3271
  44 3272
  36 3273
  41 3274
  34 3275
  41 3276
  39 3277
  41 3278
  46 3279
  45 3280
  44 3281
  43 3282
  35 3283
  43 3284
  47 3285
  44 3286
  37 3287
  47 3288
  40 3289
  38 3290
  49 3291
  39 3292
  27 3293
  43 3294
  52 3295
  44 3296
  36 3297
  37 3298
  41 3299
  38 3300
  34 3301
  32 3302
  41 3303
  33 3304
  30 3305
  42 3306
  50 3307
  42 3308
  43 3309
  36 3310
  46 3311
  44 3312
  41 3313
  45 3314
  35 3315
  43 3316
  36 3317
  47 3318
  36 3319
  39 3320
  45 3321
  51 3322
  41 3323
  35 3324
  40 3325
  29 3326
  43 3327
  46 3328
  39 3329
  42 3330
  35 3331
  51 3332
  45 3333
  41 3334
  45 3335
  37 3336
  43 3337
  43 3338
  33 3339
  45 3340
  56 3341
  31 3342
  44 3343
  37 3344
  52 3345
  41 3346
  41 3347
  43 3348
  41 3349
  43 3350
  35 3351
  49 3352
  36 3353
  45 3354
  37 3355
  34 3356
  40 3357
  45 3358
  37 3359
  42 3360
  34 3361
  38 3362
  36 3363
  36 3364
  35 3365
  30 3366
  47 3367
  46 3368
  34 3369
  43 3370
  38 3371
  45 3372
  34 3373
  37 3374
  41 3375
  39 3376
  44 3377
  34 3378
  32 3379
  44 3380
  42 3381
  37 3382
  42 3383
  26 3384
  44 3385
  41 3386
  38 3387
  46 3388
  38 3389
  24 3390
  39 3391
  31 3392
  25 3393
  41 3394
  38 3395
  32 3396
  28 3397
  41 3398
  37 3399
  27 3400
  32 3401
  31 3402
  37 3403
  32 3404
  36 3405
  43 3406
  43 3407
  39 3408
  51 3409
  38 3410
  45 3411
  26 3412
  33 3413
  29 3414
  47 3415
  27 3416
  27 3417
  39 3418
  43 3419
  33 3420
  40 3421
  42 3422
  33 3423
  35 3424
  37 3425
  37 3426
  38 3427
  38 3428
  36 3429
  27 3430
  42 3431
  35 3432
  35 3433
  45 3434
  38 3435
  40 3436
  37 3437
  33 3438
  37 3439
  46 3440
  35 3441
  36 3442
  31 3443
  40 3444
  38 3445
  34 3446
  41 3447
  34 3448
  33 3449
  43 3450
  47 3451
  33 3452
  45 3453
  42 3454
  43 3455
  34 3456
  44 3457
  35 3458
  52 3459
  41 3460
  30 3461
  39 3462
  36 3463
  32 3464
  28 3465
  30 3466
  37 3467
  41 3468
  35 3469
  43 3470
  45 3471
  36 3472
  38 3473
  41 3474
  38 3475
  33 3476
  47 3477
  30 3478
  27 3479
  28 3480
  38 3481
  28 3482
  31 3483
  37 3484
  42 3485
  28 3486
  33 3487
  37 3488
  36 3489
  36 3490
  33 3491
  34 3492
  25 3493
  32 3494
  25 3495
  35 3496
  40 3497
  36 3498
  29 3499
  32 3500
  36 3501
  33 3502
  39 3503
  25 3504
  39 3505
  26 3506
  40 3507
  43 3508
  41 3509
  35 3510
  30 3511
  26 3512
  22 3513
  31 3514
  36 3515
  32 3516
  37 3517
  32 3518
  25 3519
  25 3520
  34 3521
  33 3522
  37 3523
  45 3524
  33 3525
  37 3526
  38 3527
  32 3528
  30 3529
  29 3530
  28 3531
  35 3532
  30 3533
  30 3534
  30 3535
  32 3536
  35 3537
  37 3538
  23 3539
  25 3540
  35 3541
  36 3542
  42 3543
  32 3544
  33 3545
  31 3546
  40 3547
  34 3548
  25 3549
  31 3550
  41 3551
  33 3552
  36 3553
  40 3554
  49 3555
  30 3556
  24 3557
  24 3558
  39 3559
  29 3560
  40 3561
  39 3562
  35 3563
  33 3564
  28 3565
  21 3566
  28 3567
  36 3568
  29 3569
  26 3570
  35 3571
  26 3572
  33 3573
  33 3574
  28 3575
  39 3576
  45 3577
  23 3578
  43 3579
  31 3580
  34 3581
  32 3582
  38 3583
  31 3584
  31 3585
  28 3586
  33 3587
  33 3588
  43 3589
  26 3590
  32 3591
  14 3592
  31 3593
  29 3594
  34 3595
  33 3596
  27 3597
  26 3598
  31 3599
  22 3600
  24 3601
  33 3602
  33 3603
  24 3604
  22 3605
  28 3606
  29 3607
  35 3608
  35 3609
  22 3610
  31 3611
  29 3612
  26 3613
  33 3614
  31 3615
  26 3616
  27 3617
  38 3618
  37 3619
  32 3620
  35 3621
  29 3622
  29 3623
  40 3624
  27 3625
  26 3626
  34 3627
  21 3628
  31 3629
  31 3630
  31 3631
  27 3632
  33 3633
  35 3634
  23 3635
  21 3636
  33 3637
  30 3638
  31 3639
  25 3640
  33 3641
  32 3642
  29 3643
  27 3644
  26 3645
  31 3646
  28 3647
  31 3648
  30 3649
  29 3650
  31 3651
  24 3652
  24 3653
  30 3654
  41 3655
  37 3656
  31 3657
  29 3658
  36 3659
  24 3660
  21 3661
  34 3662
  25 3663
  21 3664
  28 3665
  25 3666
  28 3667
  28 3668
  34 3669
  23 3670
  33 3671
  31 3672
  30 3673
  25 3674
  24 3675
  26 3676
  33 3677
  29 3678
  30 3679
  23 3680
  35 3681
  30 3682
  25 3683
  28 3684
  36 3685
  32 3686
  27 3687
  25 3688
  34 3689
  25 3690
  37 3691
  29 3692
  29 3693
  25 3694
  27 3695
  34 3696
  33 3697
  27 3698
  25 3699
  23 3700
  27 3701
  32 3702
  26 3703
  24 3704
  20 3705
  27 3706
  29 3707
  17 3708
  26 3709
  22 3710
  38 3711
  24 3712
  28 3713
  34 3714
  31 3715
  25 3716
  33 3717
  30 3718
  30 3719
  26 3720
  41 3721
  32 3722
  30 3723
  32 3724
  35 3725
  36 3726
  32 3727
  23 3728
  32 3729
  31 3730
  25 3731
  29 3732
  36 3733
  18 3734
  39 3735
  29 3736
  34 3737
  20 3738
  36 3739
  29 3740
  22 3741
  26 3742
  32 3743
  34 3744
  25 3745
  23 3746
  27 3747
  27 3748
  23 3749
  29 3750
  25 3751
  32 3752
  32 3753
  25 3754
  31 3755
  23 3756
  27 3757
  17 3758
  20 3759
  32 3760
  31 3761
  33 3762
  20 3763
  27 3764
  27 3765
  24 3766
  26 3767
  20 3768
  27 3769
  26 3770
  22 3771
  26 3772
  30 3773
  32 3774
  18 3775
  24 3776
  29 3777
  28 3778
  32 3779
  18 3780
  34 3781
  27 3782
  28 3783
  26 3784
  22 3785
  31 3786
  24 3787
  19 3788
  18 3789
  22 3790
  29 3791
  24 3792
  26 3793
  20 3794
  38 3795
  23 3796
  24 3797
  33 3798
  26 3799
  29 3800
  17 3801
  26 3802
  17 3803
  21 3804
  23 3805
  19 3806
  27 3807
  29 3808
  20 3809
  23 3810
  34 3811
  34 3812
  28 3813
  23 3814
  27 3815
  18 3816
  25 3817
  22 3818
  27 3819
  20 3820
  28 3821
  25 3822
  19 3823
  25 3824
  25 3825
  19 3826
  22 3827
  34 3828
  26 3829
  20 3830
  18 3831
  28 3832
  25 3833
  28 3834
  25 3835
  26 3836
  19 3837
  29 3838
  27 3839
  20 3840
  24 3841
  16 3842
  36 3843
  18 3844
  17 3845
  23 3846
  21 3847
  28 3848
  26 3849
  29 3850
  34 3851
  32 3852
  32 3853
  22 3854
  31 3855
  25 3856
  16 3857
  24 3858
  14 3859
  36 3860
  31 3861
  23 3862
  29 3863
  27 3864
  11 3865
  24 3866
  26 3867
  15 3868
  20 3869
  25 3870
  28 3871
  23 3872
  36 3873
  21 3874
  17 3875
  21 3876
  21 3877
  25 3878
  17 3879
  19 3880
  29 3881
  36 3882
  31 3883
  17 3884
  13 3885
  34 3886
  24 3887
  33 3888
  33 3889
  21 3890
  25 3891
  17 3892
  37 3893
  24 3894
  21 3895
  21 3896
  19 3897
  28 3898
  24 3899
  16 3900
  22 3901
  22 3902
  20 3903
  23 3904
  28 3905
  22 3906
  22 3907
  19 3908
  27 3909
  32 3910
  23 3911
  34 3912
  30 3913
  20 3914
  28 3915
  27 3916
  18 3917
  20 3918
  22 3919
  28 3920
  32 3921
  22 3922
  15 3923
  28 3924
  29 3925
  18 3926
  23 3927
  22 3928
  17 3929
  25 3930
  22 3931
  27 3932
  20 3933
  16 3934
  26 3935
  22 3936
  22 3937
  20 3938
  26 3939
  31 3940
  22 3941
  20 3942
  29 3943
  29 3944
  16 3945
  30 3946
  26 3947
  31 3948
  19 3949
  18 3950
  16 3951
  19 3952
  21 3953
  23 3954
  24 3955
  22 3956
  14 3957
  20 3958
  20 3959
  17 3960
  20 3961
  25 3962
  20 3963
  21 3964
  18 3965
  26 3966
  24 3967
  24 3968
  22 3969
  17 3970
  26 3971
  26 3972
  23 3973
  16 3974
  13 3975
  16 3976
  26 3977
  14 3978
  23 3979
  26 3980
  26 3981
  23 3982
  27 3983
  19 3984
  23 3985
  16 3986
  26 3987
  25 3988
  22 3989
  23 3990
  18 3991
  19 3992
  12 3993
  21 3994
  24 3995
  26 3996
  25 3997
  26 3998
  23 3999
  16 4000
  30 4001
  16 4002
  21 4003
  19 4004
  16 4005
  22 4006
  19 4007
  21 4008
  24 4009
  26 4010
  13 4011
  19 4012
  20 4013
  23 4014
  18 4015
  16 4016
  22 4017
  14 4018
  29 4019
  22 4020
  16 4021
  24 4022
  24 4023
  18 4024
  21 4025
  22 4026
  19 4027
  22 4028
  15 4029
  25 4030
  16 4031
  18 4032
  19 4033
  15 4034
  21 4035
  18 4036
  17 4037
  27 4038
  22 4039
  24 4040
  23 4041
  15 4042
  24 4043
  16 4044
  25 4045
  20 4046
  27 4047
  22 4048
  21 4049
  14 4050
  18 4051
  20 4052
  24 4053
  26 4054
  25 4055
  18 4056
  20 4057
  21 4058
  21 4059
  16 4060
  18 4061
  22 4062
  19 4063
  22 4064
  21 4065
  16 4066
  18 4067
  20 4068
  21 4069
  18 4070
  20 4071
  21 4072
  18 4073
  20 4074
  23 4075
  23 4076
  18 4077
  13 4078
  14 4079
  17 4080
  23 4081
  20 4082
  28 4083
  18 4084
  19 4085
  17 4086
  18 4087
  14 4088
  20 4089
  16 4090
  10 4091
  16 4092
  28 4093
  17 4094
  15 4095
  20 4096
  19 4097
  19 4098
  26 4099
  18 4100
  15 4101
  23 4102
  18 4103
  20 4104
  17 4105
  21 4106
  14 4107
  14 4108
  18 4109
  16 4110
  20 4111
  15 4112
  18 4113
  16 4114
  17 4115
  20 4116
  12 4117
  19 4118
  25 4119
  12 4120
  16 4121
  19 4122
  16 4123
  18 4124
  15 4125
  21 4126
  14 4127
  20 4128
  17 4129
  16 4130
  16 4131
  22 4132
  24 4133
  15 4134
  15 4135
  17 4136
  21 4137
  16 4138
  26 4139
  22 4140
  19 4141
  19 4142
  15 4143
  15 4144
  11 4145
  17 4146
   8 4147
  18 4148
  15 4149
  14 4150
  20 4151
  13 4152
  25 4153
  26 4154
  15 4155
  21 4156
  19 4157
  16 4158
  13 4159
  15 4160
  17 4161
  17 4162
  15 4163
  21 4164
  17 4165
  20 4166
  11 4167
  17 4168
  14 4169
  18 4170
  18 4171
  22 4172
  16 4173
  22 4174
  20 4175
  19 4176
  14 4177
  23 4178
  14 4179
  13 4180
  20 4181
  17 4182
  22 4183
  20 4184
  31 4185
  18 4186
   9 4187
  16 4188
  16 4189
  16 4190
  21 4191
  19 4192
  15 4193
  20 4194
  24 4195
  19 4196
  12 4197
  13 4198
  14 4199
  21 4200
  23 4201
  21 4202
  24 4203
  24 4204
  13 4205
  15 4206
  17 4207
  16 4208
  20 4209
  20 4210
  18 4211
  19 4212
  24 4213
  16 4214
  16 4215
  18 4216
  13 4217
  15 4218
  20 4219
  13 4220
  18 4221
  18 4222
  12 4223
  12 4224
  19 4225
  17 4226
  10 4227
  12 4228
  13 4229
  17 4230
  22 4231
  14 4232
  21 4233
  16 4234
  16 4235
  12 4236
  17 4237
  16 4238
  17 4239
  23 4240
  19 4241
  17 4242
  15 4243
  16 4244
  16 4245
  12 4246
  17 4247
  18 4248
  13 4249
  10 4250
  14 4251
  19 4252
  14 4253
  15 4254
  15 4255
  19 4256
  14 4257
  21 4258
  16 4259
  16 4260
  18 4261
  14 4262
  13 4263
  19 4264
  12 4265
  20 4266
  22 4267
  10 4268
  18 4269
  17 4270
  18 4271
  11 4272
  17 4273
  22 4274
  19 4275
  18 4276
  15 4277
  19 4278
  18 4279
  10 4280
  22 4281
  16 4282
  20 4283
  20 4284
  15 4285
  17 4286
  16 4287
  16 4288
  20 4289
  15 4290
  12 4291
  15 4292
  14 4293
  21 4294
  26 4295
  16 4296
  18 4297
  11 4298
  17 4299
  12 4300
  12 4301
  24 4302
  20 4303
  19 4304
  23 4305
  10 4306
  18 4307
  22 4308
   9 4309
  11 4310
  20 4311
  16 4312
  12 4313
  24 4314
  13 4315
  10 4316
  14 4317
  18 4318
   9 4319
  14 4320
  12 4321
  17 4322
  13 4323
  21 4324
   9 4325
  17 4326
  13 4327
  12 4328
  15 4329
  16 4330
  11 4331
  17 4332
  19 4333
  17 4334
  13 4335
  24 4336
  18 4337
  28 4338
  20 4339
  17 4340
  16 4341
  22 4342
  17 4343
  15 4344
  14 4345
  11 4346
   9 4347
   9 4348
  12 4349
  12 4350
   8 4351
  18 4352
  18 4353
   9 4354
  11 4355
  20 4356
  10 4357
  16 4358
  14 4359
  21 4360
  14 4361
  20 4362
  12 4363
  13 4364
  21 4365
  12 4366
  14 4367
  19 4368
  19 4369
  20 4370
  11 4371
  17 4372
  18 4373
  15 4374
  18 4375
  22 4376
  16 4377
  11 4378
  11 4379
  15 4380
  13 4381
  18 4382
  14 4383
  15 4384
  12 4385
  12 4386
   8 4387
  18 4388
  18 4389
  10 4390
  13 4391
  14 4392
  12 4393
  18 4394
  10 4395
  14 4396
  13 4397
  14 4398
  10 4399
  21 4400
  12 4401
  11 4402
  11 4403
  25 4404
   9 4405
  17 4406
  22 4407
  14 4408
  19 4409
  16 4410
  11 4411
  16 4412
  16 4413
  15 4414
  12 4415
  15 4416
  14 4417
  14 4418
  16 4419
  14 4420
  12 4421
  18 4422
  15 4423
  17 4424
  12 4425
  10 4426
  15 4427
  12 4428
  19 4429
  16 4430
  18 4431
  18 4432
  12 4433
  18 4434
  12 4435
  18 4436
  16 4437
  15 4438
  16 4439
  16 4440
  14 4441
  18 4442
  16 4443
   7 4444
  11 4445
  11 4446
  13 4447
  20 4448
  14 4449
  15 4450
   8 4451
  10 4452
  11 4453
  13 4454
  15 4455
  21 4456
  10 4457
  16 4458
  10 4459
  20 4460
  11 4461
  20 4462
  15 4463
  13 4464
  18 4465
   9 4466
  21 4467
  11 4468
  16 4469
  16 4470
  11 4471
   9 4472
  16 4473
  13 4474
  13 4475
  15 4476
   7 4477
  11 4478
  11 4479
  16 4480
   7 4481
  13 4482
  14 4483
   9 4484
  10 4485
  15 4486
  14 4487
  14 4488
  17 4489
  12 4490
  21 4491
  11 4492
  10 4493
  10 4494
  13 4495
  13 4496
  11 4497
  14 4498
  12 4499
  15 4500
  15 4501
   9 4502
  15 4503
  10 4504
   7 4505
  18 4506
  17 4507
  11 4508
  10 4509
  12 4510
  16 4511
  12 4512
  15 4513
   8 4514
  10 4515
  12 4516
  10 4517
  12 4518
  21 4519
  18 4520
  11 4521
  15 4522
  10 4523
  15 4524
   7 4525
  12 4526
  13 4527
  11 4528
  21 4529
  11 4530
  20 4531
  10 4532
  19 4533
  15 4534
  16 4535
  13 4536
  17 4537
  11 4538
  15 4539
  13 4540
   9 4541
  12 4542
  15 4543
   9 4544
  11 4545
  15 4546
  14 4547
  11 4548
  14 4549
   8 4550
  11 4551
  10 4552
  12 4553
  10 4554
   9 4555
  11 4556
  12 4557
  10 4558
  14 4559
  10 4560
  11 4561
  10 4562
  17 4563
  15 4564
  21 4565
  13 4566
  14 4567
   9 4568
  15 4569
  16 4570
  11 4571
   8 4572
  12 4573
  16 4574
  16 4575
   9 4576
  19 4577
   8 4578
  13 4579
  17 4580
   8 4581
   9 4582
  17 4583
  15 4584
  14 4585
  14 4586
  15 4587
  15 4588
  11 4589
  16 4590
  13 4591
   8 4592
   9 4593
  14 4594
  17 4595
  14 4596
   7 4597
  14 4598
  10 4599
   8 4600
  14 4601
  13 4602
  12 4603
   9 4604
   7 4605
   8 4606
   9 4607
  15 4608
   8 4609
  12 4610
   8 4611
  19 4612
  18 4613
  14 4614
  11 4615
  15 4616
  11 4617
   6 4618
   8 4619
  12 4620
  10 4621
  12 4622
  12 4623
  12 4624
   6 4625
  12 4626
   5 4627
   8 4628
  10 4629
  11 4630
  17 4631
  13 4632
  15 4633
   8 4634
  10 4635
  15 4636
   9 4637
   6 4638
  10 4639
  12 4640
  14 4641
  16 4642
  10 4643
  14 4644
   8 4645
  10 4646
  20 4647
   8 4648
  12 4649
  13 4650
  11 4651
  14 4652
   5 4653
  10 4654
   5 4655
   8 4656
   7 4657
   9 4658
  11 4659
   5 4660
  10 4661
  10 4662
   9 4663
   4 4664
  17 4665
  12 4666
  13 4667
   6 4668
   9 4669
   9 4670
   8 4671
  16 4672
  12 4673
   8 4674
  10 4675
  14 4676
  11 4677
  13 4678
  11 4679
   9 4680
  11 4681
  11 4682
  11 4683
  10 4684
   8 4685
  15 4686
  14 4687
  15 4688
   6 4689
  11 4690
  11 4691
  18 4692
   9 4693
   8 4694
   8 4695
   7 4696
  10 4697
  13 4698
   8 4699
   8 4700
  14 4701
  11 4702
  14 4703
  11 4704
   7 4705
  11 4706
  12 4707
  11 4708
  19 4709
  12 4710
  15 4711
   7 4712
   8 4713
  12 4714
  10 4715
  11 4716
   8 4717
   9 4718
   6 4719
  10 4720
   9 4721
  15 4722
   7 4723
   6 4724
   9 4725
   8 4726
   6 4727
   9 4728
  12 4729
  10 4730
   2 4731
  15 4732
  12 4733
   8 4734
  17 4735
  16 4736
  14 4737
  10 4738
   9 4739
   9 4740
  12 4741
  11 4742
   9 4743
   6 4744
   9 4745
   8 4746
  11 4747
   7 4748
  11 4749
  18 4750
  11 4751
  11 4752
   6 4753
  12 4754
   7 4755
  10 4756
  11 4757
  14 4758
   8 4759
  12 4760
   8 4761
   8 4762
  12 4763
   8 4764
  10 4765
  10 4766
   7 4767
  12 4768
  19 4769
   9 4770
  10 4771
   8 4772
  11 4773
  13 4774
   9 4775
   7 4776
   7 4777
   9 4778
   9 4779
  12 4780
  14 4781
   5 4782
   7 4783
  11 4784
   6 4785
   9 4786
  18 4787
   9 4788
   4 4789
   8 4790
  20 4791
  12 4792
  11 4793
  10 4794
  12 4795
  11 4796
   9 4797
   9 4798
   7 4799
  12 4800
   6 4801
   5 4802
  10 4803
  12 4804
   6 4805
  16 4806
   7 4807
   8 4808
  22 4809
   9 4810
   8 4811
   9 4812
   7 4813
   8 4814
   4 4815
   5 4816
   8 4817
  11 4818
  10 4819
  11 4820
  16 4821
  13 4822
   6 4823
  10 4824
  11 4825
  12 4826
   8 4827
   8 4828
  10 4829
   5 4830
  11 4831
   8 4832
  12 4833
  12 4834
  10 4835
  13 4836
   8 4837
   8 4838
   6 4839
   5 4840
  10 4841
   9 4842
  15 4843
  12 4844
  12 4845
  10 4846
  12 4847
   7 4848
   7 4849
  11 4850
   6 4851
   3 4852
   5 4853
  10 4854
  10 4855
  11 4856
   5 4857
   5 4858
   7 4859
   8 4860
   6 4861
  17 4862
  12 4863
  14 4864
  12 4865
  10 4866
  10 4867
  11 4868
   9 4869
   8 4870
   7 4871
  12 4872
  10 4873
   6 4874
  17 4875
  12 4876
  12 4877
   8 4878
  15 4879
  11 4880
   4 4881
   8 4882
   6 4883
   1 4884
   8 4885
  15 4886
  14 4887
   9 4888
   9 4889
   9 4890
   7 4891
   9 4892
  13 4893
   5 4894
   8 4895
   4 4896
  12 4897
   8 4898
  10 4899
  10 4900
  11 4901
  12 4902
   6 4903
   7 4904
   4 4905
  13 4906
   8 4907
   6 4908
  16 4909
  10 4910
   4 4911
  10 4912
   7 4913
   8 4914
  12 4915
   4 4916
  14 4917
   3 4918
  12 4919
   9 4920
  10 4921
   3 4922
   6 4923
  11 4924
   7 4925
   7 4926
   3 4927
   7 4928
  10 4929
   7 4930
   8 4931
   8 4932
   8 4933
  12 4934
   7 4935
   5 4936
   7 4937
   9 4938
   9 4939
   9 4940
   8 4941
  10 4942
   5 4943
   8 4944
   7 4945
  11 4946
  11 4947
  10 4948
   7 4949
   9 4950
   3 4951
  13 4952
   6 4953
   8 4954
   9 4955
  10 4956
   4 4957
  14 4958
   8 4959
  12 4960
  12 4961
  14 4962
   7 4963
  11 4964
   9 4965
   7 4966
  11 4967
   6 4968
  10 4969
   9 4970
   8 4971
  11 4972
   9 4973
  15 4974
  11 4975
   8 4976
  10 4977
   8 4978
  13 4979
   9 4980
   5 4981
   8 4982
   6 4983
   9 4984
  13 4985
   8 4986
   9 4987
   2 4988
   8 4989
   7 4990
   8 4991
  13 4992
   7 4993
   8 4994
  10 4995
  11 4996
   4 4997
  10 4998
   4 4999
   6 5000
   6 5001
   8 5002
  12 5003
   7 5004
  10 5005
   6 5006
   6 5007
   7 5008
   8 5009
   7 5010
   5 5011
   9 5012
   4 5013
   8 5014
  12 5015
   9 5016
  11 5017
   4 5018
  11 5019
   8 5020
  20 5021
  14 5022
  14 5023
   8 5024
   9 5025
   8 5026
  11 5027
   7 5028
   9 5029
   6 5030
   6 5031
   9 5032
  12 5033
   9 5034
  10 5035
  15 5036
   9 5037
   5 5038
   6 5039
   5 5040
   9 5041
   7 5042
   6 5043
   8 5044
   7 5045
  10 5046
   7 5047
  10 5048
   5 5049
   8 5050
  11 5051
   8 5052
   5 5053
  11 5054
   7 5055
   8 5056
  12 5057
   9 5058
   9 5059
  10 5060
  11 5061
  11 5062
   7 5063
   7 5064
  10 5065
   3 5066
   4 5067
   6 5068
   6 5069
  11 5070
   4 5071
   4 5072
   5 5073
   7 5074
   9 5075
   9 5076
   3 5077
   7 5078
   4 5079
  10 5080
  11 5081
   6 5082
   6 5083
   6 5084
   7 5085
   8 5086
   8 5087
   6 5088
   4 5089
   7 5090
   6 5091
   4 5092
   8 5093
   9 5094
   9 5095
   7 5096
   3 5097
   5 5098
   7 5099
  10 5100
   4 5101
  13 5102
   8 5103
   9 5104
  11 5105
   8 5106
   6 5107
   6 5108
  15 5109
  11 5110
  11 5111
   5 5112
   7 5113
   8 5114
   8 5115
   4 5116
   4 5117
   8 5118
  11 5119
  12 5120
   6 5121
   9 5122
   6 5123
   8 5124
   9 5125
   5 5126
   5 5127
   6 5128
   6 5129
   7 5130
   8 5131
   8 5132
  11 5133
  10 5134
   7 5135
   5 5136
   4 5137
   6 5138
  12 5139
   8 5140
   7 5141
   9 5142
   8 5143
   7 5144
   8 5145
   6 5146
  10 5147
   4 5148
   7 5149
   8 5150
   6 5151
   7 5152
  13 5153
   4 5154
   9 5155
   8 5156
   6 5157
   8 5158
   4 5159
   8 5160
   2 5161
   6 5162
   4 5163
   6 5164
   9 5165
   6 5166
   8 5167
   9 5168
  11 5169
   7 5170
   6 5171
   8 5172
   8 5173
   2 5174
   7 5175
   5 5176
  11 5177
   7 5178
   9 5179
   7 5180
   2 5181
   4 5182
   8 5183
   5 5184
  14 5185
   7 5186
   5 5187
   5 5188
  11 5189
   7 5190
  11 5191
   5 5192
   5 5193
   6 5194
   7 5195
   9 5196
   7 5197
   8 5198
   7 5199
  10 5200
   8 5201
   7 5202
   4 5203
   2 5204
   8 5205
   6 5206
  10 5207
   6 5208
   8 5209
   8 5210
   8 5211
   9 5212
   4 5213
  14 5214
   7 5215
   6 5216
   7 5217
   7 5218
   8 5219
   2 5220
   7 5221
  11 5222
   6 5223
   3 5224
   6 5225
   2 5226
   9 5227
   3 5228
   3 5229
   3 5230
   7 5231
   6 5232
  10 5233
   6 5234
  10 5235
   8 5236
   5 5237
   4 5238
   6 5239
   8 5240
   5 5241
   6 5242
   5 5243
   9 5244
   7 5245
   7 5246
   7 5247
   6 5248
   9 5249
   8 5250
   5 5251
   4 5252
   4 5253
   7 5254
   8 5255
   2 5256
   3 5257
  10 5258
  10 5259
   5 5260
   7 5261
  11 5262
   7 5263
   2 5264
   4 5265
  14 5266
   4 5267
   2 5268
   5 5269
   6 5270
   4 5271
   4 5272
   3 5273
  11 5274
   5 5275
   2 5276
   6 5277
   5 5278
   6 5279
   5 5280
   6 5281
   7 5282
   4 5283
  14 5284
   2 5285
   7 5286
   6 5287
   7 5288
  10 5289
   6 5290
   4 5291
   6 5292
   6 5293
   8 5294
   5 5295
   8 5296
  10 5297
   6 5298
   9 5299
   5 5300
   8 5301
   7 5302
  11 5303
   6 5304
   5 5305
   1 5306
   4 5307
   5 5308
   6 5309
   3 5310
   4 5311
   4 5312
   9 5313
   9 5314
  10 5315
   8 5316
   9 5317
   4 5318
   4 5319
   5 5320
   6 5321
   8 5322
   9 5323
  10 5324
   9 5325
   5 5326
   6 5327
   5 5328
   5 5329
   6 5330
   5 5331
   4 5332
   6 5333
   8 5334
   9 5335
   9 5336
   6 5337
   7 5338
  10 5339
   9 5340
   6 5341
   8 5342
   7 5343
   8 5344
   7 5345
   8 5346
   8 5347
   6 5348
   2 5349
   4 5350
   6 5351
   5 5352
   7 5353
   4 5354
   9 5355
   7 5356
   9 5357
   8 5358
   6 5359
   9 5360
   5 5361
   6 5362
   4 5363
   6 5364
   4 5365
   4 5366
   6 5367
   8 5368
   6 5369
   4 5370
   5 5371
   3 5372
   8 5373
   8 5374
   8 5375
   6 5376
   7 5377
   9 5378
   5 5379
  12 5380
   3 5381
   6 5382
   4 5383
   6 5384
   5 5385
   7 5386
   4 5387
  12 5388
   5 5389
   8 5390
   6 5391
   7 5392
   6 5393
   5 5394
   5 5395
   3 5396
   5 5397
   9 5398
   5 5399
   5 5400
   8 5401
   6 5402
   6 5403
   7 5404
   5 5405
   3 5406
   7 5407
   9 5408
   3 5409
   5 5410
   4 5411
   3 5412
   4 5413
   7 5414
   3 5415
   3 5416
   7 5417
   5 5418
   4 5419
   5 5420
   2 5421
   6 5422
   9 5423
   4 5424
   7 5425
   4 5426
  10 5427
  11 5428
   2 5429
   7 5430
   5 5431
   4 5432
   5 5433
   6 5434
   8 5435
   5 5436
   5 5437
   3 5438
  11 5439
  13 5440
   5 5441
   4 5442
   5 5443
   7 5444
   9 5445
   3 5446
   5 5447
   9 5448
   7 5449
   6 5450
   7 5451
   5 5452
   7 5453
   4 5454
   7 5455
   3 5456
   4 5457
   4 5458
   6 5459
   4 5460
   3 5461
   8 5462
   2 5463
   3 5464
   3 5465
  10 5466
   3 5467
   5 5468
   3 5469
   5 5470
   6 5471
   8 5472
   4 5473
   1 5474
   5 5475
   6 5476
   7 5477
   2 5478
  10 5479
   5 5480
   2 5481
   9 5482
   4 5483
   3 5484
   3 5485
   4 5486
   6 5487
   5 5488
   4 5489
   2 5490
   3 5491
   3 5492
   5 5493
   6 5494
   4 5495
   5 5496
   4 5497
   3 5498
   5 5499
   8 5500
   3 5501
   3 5502
   5 5503
   6 5504
   5 5505
   4 5506
   7 5507
   4 5508
   5 5509
   1 5510
   6 5511
   8 5512
   9 5513
   4 5514
   2 5515
   6 5516
   3 5517
   7 5518
   6 5519
   9 5520
   5 5521
   5 5522
   4 5523
   5 5525
   8 5526
   6 5527
   7 5528
   6 5529
   7 5530
   5 5531
   5 5532
   3 5533
   9 5534
   4 5535
   3 5536
   5 5537
   4 5538
   3 5539
   3 5540
   5 5541
   3 5542
   5 5543
   6 5544
   6 5545
   7 5547
   4 5548
   4 5549
   2 5550
   6 5551
   6 5552
   7 5553
   4 5554
   5 5555
   4 5556
   8 5557
   6 5558
  10 5559
   6 5560
   3 5561
   2 5562
   2 5563
   8 5564
   1 5565
   4 5566
   6 5567
   4 5568
   7 5569
   2 5570
   4 5571
   4 5572
   6 5573
   1 5574
   3 5575
   4 5576
   3 5577
   6 5578
   3 5579
   5 5580
   4 5581
   5 5582
   6 5583
   4 5584
   5 5585
   4 5586
   5 5587
   4 5588
   4 5589
   6 5590
   3 5591
   2 5592
   2 5593
   2 5594
   5 5595
   5 5596
   9 5597
  12 5598
   5 5599
   6 5600
   6 5601
   8 5602
   9 5603
   7 5604
   4 5605
   6 5606
   3 5607
   5 5608
   2 5609
   2 5610
   6 5611
   4 5612
   7 5613
   2 5614
   4 5615
   6 5616
   9 5617
   3 5618
   6 5619
   4 5620
   5 5621
   4 5622
  10 5623
   4 5624
   3 5625
   5 5626
   3 5627
   5 5628
   5 5629
   1 5630
   1 5631
   2 5632
   8 5633
   8 5634
   5 5635
   1 5636
   5 5637
  10 5638
   5 5639
   9 5640
   3 5641
   2 5642
   6 5643
   8 5644
   5 5645
   1 5646
   6 5647
   6 5648
   6 5649
   6 5650
   9 5651
   5 5652
   7 5653
   2 5654
   3 5655
   9 5656
   6 5657
   5 5658
   6 5659
   3 5660
   4 5661
   4 5662
   4 5663
   6 5664
   9 5665
   4 5666
   8 5667
   9 5668
   3 5669
   4 5670
   6 5671
   3 5672
   7 5673
   4 5674
   5 5675
   7 5676
   5 5677
   7 5678
   6 5679
   4 5680
   5 5681
   2 5682
   5 5683
   2 5684
   5 5685
   1 5686
   6 5687
   2 5688
   7 5689
   1 5690
   3 5691
   5 5692
   5 5693
   6 5694
   1 5695
   5 5696
   2 5697
   7 5698
   2 5699
   2 5700
   3 5701
   7 5702
   9 5703
   5 5704
   4 5705
   2 5707
   4 5708
   1 5709
   3 5710
   2 5711
   4 5712
   2 5713
   9 5714
   1 5715
   3 5716
   5 5717
   1 5718
   4 5719
   3 5720
   5 5721
   1 5722
   4 5723
   5 5724
   6 5725
   3 5726
   7 5727
   7 5728
   4 5729
   9 5730
   4 5731
   3 5732
   3 5733
   6 5734
   1 5735
   2 5736
   3 5737
   4 5738
   5 5739
   6 5740
   5 5741
   4 5742
   2 5743
   3 5744
   5 5745
   6 5746
   5 5747
   7 5748
   3 5749
   6 5750
   6 5751
   6 5752
   3 5753
   5 5754
   7 5755
   5 5756
   4 5757
   3 5758
   7 5759
   3 5760
   2 5761
   6 5762
  11 5763
   8 5764
   6 5765
   5 5766
   5 5768
   4 5769
   2 5770
   4 5771
   5 5772
   2 5773
   4 5774
   6 5775
   5 5776
   5 5777
   5 5778
   1 5779
   6 5780
   6 5781
   1 5782
   3 5783
   4 5784
   4 5785
   8 5786
   8 5787
   3 5788
   3 5789
   5 5790
   6 5791
   4 5792
   3 5793
   5 5794
   5 5795
   3 5796
   6 5797
   3 5798
   4 5799
   3 5800
   3 5801
   2 5802
   3 5803
   5 5804
   4 5805
   7 5806
   7 5807
   3 5808
   2 5809
   1 5810
   2 5811
   6 5812
   6 5813
   5 5814
  13 5815
   2 5816
   7 5817
   2 5818
   6 5819
   7 5820
   7 5821
   2 5822
   4 5823
   5 5824
   1 5825
   4 5826
   4 5827
   4 5828
   4 5829
   5 5830
   5 5831
   7 5832
   2 5833
   4 5834
   2 5835
   1 5836
   3 5837
   3 5838
   1 5839
   7 5840
   6 5841
   7 5842
   3 5843
   3 5844
   3 5845
   5 5846
   3 5847
   3 5848
   7 5849
   3 5850
   2 5851
   8 5852
   4 5853
   3 5854
   6 5855
   1 5856
   3 5857
   1 5858
   3 5859
   4 5860
   4 5861
   4 5862
   4 5863
   4 5864
   4 5865
   2 5866
   3 5867
   1 5868
   1 5869
   5 5870
   3 5871
   1 5872
   4 5873
   1 5874
   2 5875
   4 5876
   6 5877
   3 5878
   2 5879
   6 5880
   2 5881
   3 5882
   4 5883
   3 5884
   2 5885
   9 5886
   2 5887
   1 5888
   1 5889
   5 5890
   2 5891
   3 5892
   2 5893
   5 5894
   4 5895
   4 5896
   1 5897
   7 5898
   2 5899
   5 5900
   4 5901
   9 5902
  13 5903
   2 5904
   3 5905
   5 5906
   4 5907
   4 5908
   4 5909
   3 5910
   2 5911
   1 5912
   2 5913
   4 5914
   7 5915
   5 5916
   6 5917
   7 5918
   2 5919
   3 5920
   2 5921
   5 5922
   5 5923
   4 5924
   5 5925
   4 5926
   2 5927
   9 5928
   1 5929
   6 5930
   2 5931
   6 5932
   3 5933
   2 5934
   2 5935
   5 5936
   4 5937
   1 5938
   1 5939
   3 5940
   5 5941
   4 5942
   2 5943
   6 5944
   3 5945
   3 5946
   3 5947
   4 5948
   5 5949
   1 5950
   5 5951
   6 5952
   3 5953
   1 5954
   1 5955
   2 5956
   2 5957
   4 5958
   4 5959
   5 5960
   4 5961
   6 5962
   6 5963
   5 5964
   3 5965
   2 5966
   2 5967
   2 5968
   5 5969
   1 5971
   4 5972
   2 5973
   5 5974
   4 5975
   3 5976
   5 5977
   6 5978
   8 5979
   6 5980
   2 5981
   3 5982
   7 5983
   1 5984
   3 5985
   4 5986
   6 5987
   3 5988
   4 5989
   4 5990
   1 5992
  10 5993
   3 5994
   1 5995
   4 5996
   4 5997
   4 5998
   4 5999
   4 6000
   3 6001
   5 6002
   6 6003
   4 6004
   8 6005
   3 6006
   1 6007
   3 6008
   2 6009
   3 6010
   7 6011
   2 6012
   4 6013
   6 6014
   1 6015
   2 6016
   2 6017
   2 6018
   4 6019
   6 6020
   3 6021
   4 6022
   5 6023
   5 6024
   3 6025
   1 6026
   3 6027
   4 6028
   2 6029
   3 6030
   6 6032
   6 6033
   4 6034
   5 6035
   3 6036
   1 6037
   2 6038
   3 6039
   3 6040
   2 6041
   1 6042
   2 6043
   4 6044
   2 6045
   4 6046
   3 6047
  10 6048
   4 6049
   7 6050
   4 6051
   4 6052
   4 6053
   4 6054
   4 6055
   8 6056
   6 6057
   3 6058
   2 6059
   1 6060
   5 6061
   3 6062
   1 6063
   4 6064
   1 6065
   7 6066
   4 6067
   6 6068
   2 6069
   5 6070
   1 6071
   1 6072
   3 6073
   3 6074
   2 6075
  10 6076
   5 6077
   3 6078
   4 6079
   7 6080
   4 6081
   4 6082
   2 6083
   3 6084
   3 6085
   2 6086
   4 6087
   3 6088
   2 6089
   1 6090
   3 6091
   9 6092
   5 6093
   5 6094
   4 6095
   1 6096
   3 6097
   4 6098
   2 6099
   4 6100
   3 6101
   3 6102
   1 6103
   6 6104
   4 6105
   3 6106
   1 6107
   3 6108
   1 6109
   3 6110
   8 6111
   3 6112
   5 6113
   2 6114
   3 6115
   4 6116
   4 6117
   1 6118
   1 6119
   4 6120
   7 6121
   3 6122
   5 6123
   1 6124
   4 6125
   7 6126
   1 6127
   3 6128
   7 6129
   4 6130
   4 6131
   3 6132
   3 6133
   1 6134
   3 6135
   2 6136
   4 6137
   2 6138
   4 6139
   5 6140
   1 6141
   5 6142
   3 6143
   1 6144
   1 6145
   4 6146
   2 6147
   4 6148
   3 6149
   6 6150
   5 6151
   9 6152
   2 6153
   6 6154
   3 6155
   5 6157
   1 6158
   2 6159
   2 6160
   3 6161
   2 6162
   1 6163
   1 6164
   1 6165
   3 6166
   3 6167
   2 6168
   5 6169
   1 6170
   3 6171
   4 6173
   3 6174
   1 6175
   2 6176
   5 6177
   5 6178
   5 6179
   5 6180
   3 6181
   2 6182
   2 6183
   5 6184
   2 6185
   3 6186
   5 6187
   4 6188
   4 6189
   3 6190
   4 6191
   7 6192
   2 6193
   2 6194
   1 6195
   7 6196
   2 6197
   6 6198
   4 6199
   3 6200
   2 6201
   3 6202
   1 6203
   3 6204
   2 6205
   3 6206
   2 6207
   4 6208
   2 6209
   5 6210
   3 6211
   3 6212
   5 6214
   2 6215
   6 6216
   3 6217
   1 6218
   1 6219
   2 6220
   1 6221
   5 6222
   6 6223
   3 6224
   7 6225
   3 6226
   3 6227
   3 6228
   4 6230
   3 6231
   3 6232
   3 6233
   6 6234
   5 6235
   2 6236
   4 6237
   1 6238
   5 6239
   3 6240
   1 6241
   1 6242
   4 6243
   3 6244
   5 6246
   3 6247
   3 6248
   5 6249
   4 6250
   4 6251
   4 6252
   5 6253
   3 6254
   2 6255
   6 6256
   1 6257
   5 6258
   2 6260
   5 6261
   4 6263
   6 6264
   4 6265
   3 6266
   3 6267
   3 6268
   3 6269
   2 6270
   3 6271
   2 6272
   2 6273
   4 6274
   4 6275
   1 6276
   7 6277
   3 6279
   1 6280
   1 6281
   4 6282
   3 6283
   4 6284
   6 6285
   5 6286
   3 6287
   2 6288
   5 6289
   2 6290
   2 6291
   2 6292
   3 6293
   3 6294
   2 6295
   2 6296
   3 6297
   2 6298
   1 6299
   3 6300
   3 6301
   3 6302
   4 6303
   3 6304
   2 6305
   1 6306
   1 6307
   4 6308
   1 6309
   1 6310
   3 6311
   3 6312
   1 6313
   2 6314
   7 6315
   5 6316
   2 6317
   5 6318
   5 6320
   2 6321
   3 6322
   2 6323
   1 6324
   2 6325
   4 6326
   2 6327
   3 6328
   2 6329
   2 6330
   1 6331
   1 6332
   1 6333
   8 6334
   6 6336
   1 6337
   3 6338
   4 6339
   1 6340
   2 6341
   1 6342
   4 6344
   1 6345
   1 6347
   3 6348
   3 6349
   3 6350
   2 6351
   4 6352
   4 6353
   3 6354
   2 6355
   3 6356
   2 6357
   2 6358
   4 6359
   1 6361
   1 6363
   3 6364
   2 6365
   5 6367
   2 6368
   1 6371
   3 6372
   1 6373
   4 6374
   2 6375
   1 6376
   4 6377
   1 6378
   3 6379
   3 6380
   3 6381
   2 6382
   1 6383
   4 6384
   1 6385
   2 6386
   1 6387
   7 6388
   2 6389
   4 6391
   4 6392
   4 6393
   4 6394
   1 6395
   1 6396
   1 6397
   4 6398
   1 6399
   3 6400
   2 6401
   3 6402
   3 6403
   1 6404
   5 6405
   4 6406
   1 6407
   2 6408
   2 6409
   1 6410
   5 6411
   6 6412
   3 6413
   3 6415
   2 6416
   3 6417
   2 6418
   2 6419
   1 6420
   3 6421
   3 6424
   4 6425
   2 6428
   2 6430
   1 6431
   3 6432
   5 6433
   3 6434
   3 6435
   5 6436
   2 6437
   4 6438
   2 6439
   6 6440
   6 6441
   5 6442
   1 6443
   1 6444
   1 6445
   2 6446
   1 6447
   2 6448
   1 6449
   5 6450
   3 6451
   1 6452
   3 6453
   1 6454
   2 6455
   6 6456
   2 6457
   6 6458
   5 6460
   1 6461
   2 6462
   2 6463
   2 6464
   1 6466
   1 6467
   1 6468
   4 6469
   4 6470
   1 6471
   2 6472
   4 6473
   3 6474
   2 6475
   1 6476
   5 6477
   1 6478
   1 6480
   3 6481
   5 6482
   2 6483
   1 6484
   1 6485
   4 6486
   7 6487
   4 6488
   4 6489
   1 6490
   4 6491
   3 6492
   1 6493
   2 6494
   1 6495
   6 6497
   3 6498
   2 6500
   3 6501
   3 6502
   3 6503
   1 6504
   3 6505
   3 6506
   1 6507
   3 6509
   5 6510
   1 6511
   3 6512
   5 6513
   2 6514
   2 6515
   1 6516
   1 6517
   1 6518
   1 6519
   3 6520
   1 6521
   4 6523
   3 6524
   1 6525
   3 6527
   2 6529
   3 6531
   2 6533
   1 6534
   4 6535
   2 6536
   3 6537
   4 6539
   6 6540
   1 6541
   3 6542
   6 6543
   2 6544
   2 6545
   1 6546
   3 6547
   2 6548
   4 6549
   3 6550
   3 6551
   4 6552
   3 6553
   1 6554
   2 6556
   1 6557
   3 6558
   2 6559
   3 6560
   3 6561
   2 6562
   2 6563
   3 6564
   3 6565
   4 6566
   1 6567
   1 6568
   2 6569
   5 6570
   4 6571
   1 6572
   1 6573
   1 6574
   3 6575
   2 6576
   4 6577
   3 6578
   1 6579
   2 6580
   1 6581
   2 6582
   3 6583
   7 6584
   1 6585
   1 6586
   1 6587
   3 6588
   2 6589
   4 6590
   3 6591
   3 6592
   2 6593
   5 6594
   1 6595
   1 6596
   1 6597
   3 6598
   1 6599
   3 6600
   2 6601
   2 6602
   1 6603
   4 6604
   2 6605
   3 6606
   1 6607
   4 6609
   4 6610
   3 6611
   4 6612
   3 6613
   2 6615
   5 6616
   4 6617
   1 6618
   3 6619
   4 6621
   2 6622
   1 6623
   4 6624
   2 6625
   1 6626
   1 6627
   1 6628
   3 6629
   1 6630
   3 6631
   2 6632
   2 6633
   2 6634
   3 6635
   1 6636
   2 6637
   1 6639
   2 6640
   2 6641
   2 6642
   3 6643
   1 6644
   3 6645
   2 6646
   1 6647
   2 6648
   3 6649
   2 6650
   1 6651
   3 6652
   3 6653
   5 6654
   4 6655
   6 6656
   4 6658
   2 6659
   4 6660
   1 6661
   2 6662
   3 6663
   1 6665
   2 6666
   3 6667
   3 6668
   3 6669
   1 6670
   5 6671
   3 6672
   2 6673
   3 6674
   2 6676
   2 6677
   3 6678
   1 6679
   4 6680
   3 6681
   3 6682
   5 6683
   2 6684
   5 6685
   5 6686
   2 6688
   1 6689
   5 6690
   2 6691
   2 6692
   1 6693
   2 6694
   1 6695
   1 6696
   1 6697
   1 6698
   1 6699
   4 6700
   2 6701
   2 6702
   1 6703
   2 6704
   3 6705
   3 6706
   2 6707
   1 6708
   1 6709
   2 6710
   2 6712
   2 6713
   1 6714
   2 6715
   6 6716
   5 6717
   2 6718
   2 6719
   2 6720
   2 6721
   2 6722
   2 6723
   5 6724
   1 6725
   3 6727
   3 6728
   2 6729
   2 6730
   3 6731
   2 6732
   3 6733
   3 6734
   4 6735
   5 6736
   5 6737
   4 6739
   4 6740
   2 6741
   3 6742
   5 6743
   2 6744
   2 6745
   4 6746
   2 6747
   1 6748
   3 6749
   2 6750
   2 6751
   2 6752
   1 6753
   3 6754
   3 6755
   1 6756
   6 6757
   2 6759
   2 6762
   3 6763
   3 6765
   3 6766
   2 6767
   4 6768
   2 6769
   1 6770
   1 6771
   2 6774
   3 6775
   2 6776
   1 6777
   3 6778
   2 6779
   2 6780
   4 6781
   4 6784
   2 6785
   1 6786
   4 6787
   1 6788
   6 6789
   2 6791
   2 6792
   1 6793
   2 6794
   5 6795
   1 6796
   2 6797
   2 6798
   2 6799
   2 6800
   1 6801
   4 6802
   1 6803
   2 6804
   2 6805
   1 6806
   5 6807
   3 6808
   4 6810
   5 6811
   3 6812
   2 6813
   1 6814
   3 6815
   2 6816
   1 6817
   2 6818
   5 6819
   3 6820
   1 6821
   4 6822
   1 6824
   3 6825
   4 6826
   1 6827
   3 6828
   1 6830
   3 6831
   1 6832
   2 6833
   2 6834
   1 6835
   1 6836
   4 6837
   2 6838
   2 6840
   2 6841
   1 6842
   4 6843
   2 6844
   1 6845
   2 6846
   1 6848
   2 6850
   2 6851
   3 6852
   2 6853
   3 6854
   2 6855
   2 6858
   1 6859
   2 6860
   1 6861
   2 6862
   1 6863
   3 6864
   3 6865
   2 6866
   1 6867
   1 6868
   1 6869
   5 6870
   1 6871
   3 6872
   7 6873
   1 6874
   1 6877
   3 6878
   2 6879
   4 6880
   1 6881
   2 6882
   1 6883
   2 6884
   1 6885
   1 6886
   4 6887
   4 6888
   3 6889
   2 6890
   1 6894
   1 6895
   4 6896
   4 6899
   2 6900
   3 6901
   3 6902
   2 6903
   6 6904
   2 6905
   2 6906
   1 6907
   1 6908
   3 6909
   1 6910
   3 6911
   1 6912
   1 6914
   5 6915
   1 6917
   2 6918
   3 6920
   2 6921
   2 6922
   1 6923
   1 6924
   3 6925
   1 6926
   4 6927
   2 6928
   2 6930
   3 6931
   3 6932
   1 6933
   2 6934
   1 6937
   3 6938
   2 6939
   2 6940
   1 6941
   1 6942
   1 6943
   2 6945
   4 6946
   2 6948
   2 6949
   3 6950
   2 6951
   1 6952
   1 6953
   2 6955
   1 6956
   3 6957
   2 6958
   1 6959
   3 6960
   2 6961
   3 6964
   6 6965
   1 6967
   2 6968
   2 6969
   6 6970
   3 6971
   3 6973
   2 6974
   2 6976
   1 6977
   2 6978
   2 6979
   1 6980
   4 6981
   2 6982
   3 6983
   2 6984
   1 6985
   1 6986
   1 6987
   4 6988
   2 6989
   3 6990
   2 6991
   1 6992
   2 6993
   3 6994
   3 6995
   1 6996
   2 6997
   1 6999
   1 7000
   4 7001
   2 7002
   2 7003
   3 7005
   2 7006
   1 7007
   1 7008
   4 7009
   3 7010
   4 7011
   2 7012
   1 7013
   5 7015
   1 7016
   1 7017
   1 7018
   2 7019
   2 7020
   3 7021
   2 7022
   1 7023
   3 7026
   2 7027
   2 7028
   3 7029
   5 7031
   3 7033
   1 7034
   2 7035
   2 7036
   1 7037
   1 7040
   5 7041
   1 7042
   3 7043
   3 7044
   3 7046
   3 7047
   2 7049
   3 7050
   1 7051
   4 7052
   3 7053
   3 7054
   1 7055
   1 7056
   2 7057
   1 7058
   4 7059
   1 7063
   1 7064
   1 7065
   3 7066
   3 7067
   2 7068
   3 7069
   2 7070
   2 7071
   1 7072
   2 7073
   4 7074
   3 7075
   1 7076
   2 7077
   1 7078
   1 7079
   2 7080
   2 7081
   1 7082
   2 7083
   3 7084
   2 7086
   3 7087
   1 7088
   1 7089
   1 7090
   2 7091
   3 7092
   2 7093
   1 7094
   1 7095
   3 7097
   2 7098
   1 7099
   2 7100
   2 7102
   1 7103
   3 7104
   4 7105
   2 7106
   2 7107
   1 7109
   1 7111
   2 7112
   1 7114
   1 7115
   2 7117
   2 7118
   4 7119
   5 7120
   1 7124
   4 7125
   2 7126
   1 7127
   3 7129
   1 7130
   1 7131
   1 7132
   5 7133
   1 7135
   2 7136
   1 7137
   3 7138
   1 7139
   1 7140
   4 7141
   2 7142
   2 7143
   2 7144
   4 7145
   1 7148
   2 7149
   3 7151
   2 7153
   1 7155
   1 7156
   1 7157
   4 7158
   2 7159
   3 7161
   2 7162
   4 7163
   3 7164
   2 7165
   2 7166
   1 7167
   5 7168
   2 7169
   1 7170
   2 7171
   1 7172
   1 7173
   2 7176
   2 7177
   3 7178
   2 7181
   1 7182
   1 7184
   2 7185
   1 7187
   2 7188
   2 7189
   2 7190
   3 7191
   3 7192
   3 7194
   2 7196
   1 7199
   2 7200
   2 7201
   4 7202
   1 7203
   3 7204
   4 7206
   1 7208
   2 7209
   1 7210
   2 7211
   1 7212
   4 7215
   1 7216
   1 7217
   2 7218
   1 7219
   3 7220
   2 7223
   2 7225
   2 7226
   1 7228
   1 7232
   1 7234
   1 7235
   2 7236
   3 7237
   1 7238
   2 7239
   2 7240
   2 7242
   3 7243
   1 7244
   5 7246
   1 7247
   1 7248
   1 7249
   3 7250
   2 7251
   2 7252
   3 7253
   1 7254
   1 7255
   2 7256
   1 7257
   1 7258
   2 7259
   1 7260
   1 7261
   1 7263
   2 7264
   1 7265
   2 7267
   1 7268
   1 7269
   2 7271
   1 7272
   2 7273
   2 7274
   1 7275
   2 7276
   2 7277
   1 7280
   2 7281
   2 7283
   1 7284
   3 7285
   4 7286
   1 7287
   1 7288
   2 7289
   2 7290
   1 7291
   2 7292
   3 7293
   2 7294
   1 7295
   2 7296
   1 7297
   2 7299
   1 7300
   4 7301
   2 7302
   1 7303
   1 7304
   1 7305
   2 7306
   2 7307
   3 7308
   3 7309
   1 7310
   4 7311
   1 7312
   1 7313
   2 7314
   1 7315
   1 7316
   2 7317
   1 7318
   1 7319
   1 7321
   1 7322
   1 7323
   1 7324
   1 7325
   2 7327
   2 7328
   1 7329
   2 7330
   1 7331
   1 7332
   3 7333
   3 7336
   1 7337
   3 7338
   2 7340
   2 7342
   3 7343
   1 7345
   1 7347
   1 7348
   3 7349
   1 7350
   3 7351
   1 7352
   3 7355
   3 7358
   1 7359
   1 7360
   2 7361
   5 7362
   1 7366
   1 7367
   1 7368
   1 7370
   2 7371
   2 7372
   2 7373
   1 7374
   1 7375
   1 7377
   1 7378
   1 7379
   1 7380
   2 7382
   1 7383
   1 7384
   1 7387
   1 7388
   1 7389
   1 7390
   1 7391
   2 7392
   1 7393
   1 7394
   1 7395
   2 7398
   3 7400
   1 7401
   1 7403
   2 7404
   2 7405
   1 7406
   1 7407
   1 7408
   3 7409
   1 7410
   2 7411
   1 7412
   1 7413
   2 7415
   1 7416
   4 7417
   3 7418
   1 7419
   1 7420
   1 7422
   2 7423
   1 7424
   1 7425
   2 7426
   2 7428
   1 7429
   3 7430
   2 7431
   2 7434
   2 7435
   2 7436
   1 7437
   1 7440
   2 7442
   1 7443
   2 7446
   2 7447
   3 7448
   2 7449
   2 7452
   2 7453
   1 7455
   5 7456
   3 7458
   1 7462
   1 7464
   2 7465
   2 7466
   2 7467
   2 7468
   1 7469
   1 7472
   1 7473
   1 7477
   2 7480
   1 7482
   2 7483
   1 7484
   3 7485
   1 7487
   4 7490
   1 7491
   2 7492
   1 7493
   1 7494
   3 7495
   1 7499
   1 7500
   3 7501
   4 7502
   2 7503
   2 7504
   1 7506
   3 7507
   2 7508
   2 7509
   2 7510
   1 7512
   1 7514
   3 7516
   1 7518
   3 7519
   1 7520
   1 7521
   2 7522
   2 7524
   1 7527
   2 7528
   2 7529
   2 7531
   1 7532
   5 7533
   2 7534
   1 7535
   1 7536
   1 7537
   1 7538
   1 7539
   1 7540
   5 7542
   1 7543
   1 7544
   3 7545
   1 7546
   1 7548
   1 7549
   1 7551
   1 7553
   5 7554
   3 7555
   1 7557
   2 7558
   1 7559
   1 7563
   4 7564
   2 7566
   2 7567
   1 7568
   1 7569
   1 7570
   1 7571
   1 7572
   2 7575
   1 7576
   2 7578
   2 7580
   1 7581
   2 7582
   4 7583
   1 7585
   2 7587
   1 7588
   1 7589
   1 7591
   1 7594
   3 7595
   1 7598
   1 7600
   1 7601
   3 7602
   2 7604
   2 7605
   1 7606
   1 7607
   1 7608
   1 7609
   1 7610
   1 7611
   1 7613
   3 7615
   1 7616
   2 7617
   1 7619
   1 7620
   1 7621
   2 7624
   2 7626
   2 7627
   1 7629
   2 7630
   2 7631
   2 7632
   1 7633
   4 7634
   2 7636
   1 7637
   1 7639
   1 7643
   4 7644
   1 7645
   2 7646
   1 7647
   1 7648
   3 7650
   2 7651
   2 7653
   1 7654
   2 7655
   1 7656
   1 7657
   1 7658
   3 7659
   3 7660
   1 7661
   1 7662
   2 7663
   2 7664
   2 7665
   1 7669
   1 7670
   2 7671
   1 7675
   1 7676
   1 7679
   1 7680
   2 7681
   1 7682
   1 7684
   1 7688
   2 7689
   1 7692
   1 7693
   1 7694
   1 7695
   2 7696
   1 7697
   2 7700
   1 7703
   1 7706
   3 7707
   2 7708
   1 7709
   1 7710
   1 7711
   1 7712
   1 7713
   2 7715
   1 7716
   2 7717
   2 7718
   3 7720
   1 7721
   2 7722
   1 7724
   2 7725
   1 7727
   1 7728
   1 7730
   3 7733
   2 7734
   1 7735
   1 7736
   3 7737
   2 7741
   2 7744
   2 7745
   1 7748
   2 7749
   1 7750
   2 7751
   3 7752
   3 7754
   2 7755
   2 7756
   1 7757
   1 7758
   1 7761
   1 7762
   1 7763
   1 7764
   3 7765
   1 7766
   2 7767
   3 7768
   1 7769
   2 7771
   1 7772
   1 7775
   2 7777
   3 7780
   1 7781
   1 7782
   1 7783
   1 7786
   1 7788
   1 7790
   3 7791
   1 7793
   1 7794
   1 7795
   1 7796
   4 7798
   1 7799
   3 7800
   4 7801
   1 7802
   1 7803
   1 7805
   3 7807
   1 7808
   1 7809
   2 7810
   1 7811
   1 7812
   2 7813
   2 7814
   1 7815
   2 7818
   1 7819
   1 7820
   1 7821
   2 7822
   4 7823
   1 7824
   1 7825
   2 7827
   3 7829
   2 7831
   2 7832
   4 7833
   1 7834
   2 7836
   1 7837
   3 7840
   1 7841
   1 7843
   1 7845
   2 7846
   2 7847
   1 7848
   3 7849
   1 7851
   3 7852
   2 7853
   1 7854
   1 7855
   2 7857
   1 7858
   1 7859
   1 7860
   1 7862
   1 7863
   1 7865
   1 7867
   1 7871
   3 7874
   4 7875
   1 7876
   1 7878
   2 7879
   1 7880
   3 7882
   1 7883
   1 7884
   1 7885
   2 7886
   2 7887
   3 7888
   1 7890
   2 7891
   1 7892
   1 7893
   2 7895
   1 7896
   1 7898
   1 7899
   1 7900
   2 7903
   1 7905
   1 7908
   2 7909
   2 7910
   1 7915
   1 7916
   1 7917
   1 7920
   2 7921
   1 7922
   1 7923
   1 7924
   1 7927
   1 7928
   1 7929
   1 7930
   2 7931
   2 7933
   1 7934
   3 7941
   1 7942
   1 7943
   2 7945
   2 7946
   1 7950
   1 7951
   1 7955
   1 7956
   2 7957
   1 7958
   1 7960
   1 7962
   2 7963
   1 7964
   1 7966
   1 7967
   1 7970
   1 7971
   1 7972
   2 7973
   1 7974
   2 7976
   1 7979
   1 7980
   1 7982
   2 7985
   2 7986
   1 7987
   2 7988
   2 7990
   2 7993
   1 7994
   1 7995
   1 7997
   2 8001
   2 8002
   2 8004
   1 8005
   1 8008
   2 8011
   2 8012
   2 8014
   1 8015
   3 8017
   2 8019
   1 8021
   3 8022
   3 8023
   1 8025
   1 8026
   1 8033
   1 8034
   1 8038
   1 8039
   1 8040
   1 8041
   1 8044
   1 8045
   1 8048
   1 8053
   1 8054
   1 8056
   1 8058
   1 8059
   1 8061
   2 8062
   1 8064
   2 8065
   1 8068
   1 8070
   1 8072
   1 8075
   1 8076
   1 8079
   1 8082
   1 8083
   1 8085
   1 8087
   1 8088
   2 8089
   2 8091
   1 8093
   2 8094
   1 8095
   4 8096
   2 8097
   1 8098
   1 8099
   3 8101
   3 8105
   1 8106
   2 8108
   1 8110
   1 8111
   1 8113
   1 8114
   4 8115
   1 8116
   1 8117
   1 8119
   1 8127
   3 8132
   1 8134
   1 8135
   1 8136
   1 8138
   1 8141
   1 8143
   1 8145
   1 8146
   1 8147
   2 8148
   2 8149
   1 8151
   3 8152
   2 8153
   1 8154
   1 8155
   1 8156
   1 8158
   1 8160
   2 8161
   2 8163
   2 8170
   3 8173
   2 8174
   2 8175
   1 8176
   2 8177
   2 8178
   1 8181
   1 8182
   1 8183
   1 8186
   3 8188
   1 8189
   2 8190
   1 8191
   1 8192
   2 8195
   1 8196
   1 8197
   1 8198
   1 8200
   1 8202
   1 8203
   2 8205
   2 8208
   1 8210
   1 8212
   1 8213
   4 8216
   2 8222
   2 8228
   2 8229
   1 8230
   3 8231
   2 8232
   1 8237
   2 8238
   3 8241
   2 8244
   2 8246
   1 8247
   2 8248
   1 8251
   1 8253
   2 8256
   2 8257
   1 8259
   1 8260
   1 8261
   1 8262
   1 8266
   1 8267
   1 8269
   2 8270
   1 8272
   2 8273
   1 8274
   3 8276
   1 8280
   1 8281
   1 8282
   5 8283
   2 8285
   1 8287
   2 8288
   1 8289
   1 8290
   2 8293
   1 8294
   1 8295
   2 8296
   2 8301
   1 8302
   1 8303
   1 8306
   1 8308
   2 8309
   1 8311
   1 8312
   1 8315
   1 8317
   1 8318
   1 8320
   1 8321
   1 8323
   1 8324
   1 8325
   1 8326
   1 8327
   2 8331
   1 8333
   2 8334
   1 8335
   1 8337
   1 8338
   2 8339
   2 8342
   1 8343
   1 8344
   1 8345
   2 8347
   1 8348
   1 8349
   1 8350
   1 8351
   1 8353
   1 8355
   1 8357
   1 8358
   1 8359
   5 8360
   1 8361
   3 8364
   1 8366
   1 8368
   1 8369
   1 8370
   1 8375
   1 8376
   1 8380
   1 8381
   1 8383
   2 8385
   1 8386
   1 8388
   1 8389
   2 8393
   2 8402
   1 8403
   1 8404
   2 8405
   1 8407
   1 8408
   1 8410
   2 8411
   1 8412
   1 8413
   2 8414
   1 8415
   1 8419
   2 8421
   1 8427
   2 8428
   2 8429
   1 8431
   1 8432
   1 8434
   2 8436
   1 8438
   1 8441
   1 8442
   1 8443
   1 8447
   3 8453
   1 8454
   1 8455
   3 8457
   1 8458
   1 8459
   1 8460
   2 8462
   2 8464
   3 8465
   3 8467
   2 8469
   1 8472
   1 8474
   1 8477
   1 8481
   1 8483
   1 8486
   1 8494
   1 8495
   1 8496
   1 8497
   1 8499
   1 8500
   3 8505
   1 8508
   1 8511
   2 8512
   1 8519
   2 8520
   2 8521
   1 8522
   2 8526
   1 8533
   1 8536
   1 8540
   1 8541
   1 8542
   3 8543
   1 8546
   1 8549
   1 8550
   2 8551
   1 8552
   3 8554
   1 8555
   1 8556
   1 8557
   1 8561
   2 8562
   2 8563
   1 8565
   1 8568
   1 8570
   1 8574
   2 8577
   1 8581
   1 8582
   1 8586
   1 8587
   1 8588
   2 8589
   3 8596
   1 8600
   2 8601
   1 8603
   1 8606
   1 8607
   1 8608
   1 8610
   1 8614
   1 8616
   5 8619
   3 8621
   2 8623
   1 8625
   2 8626
   1 8627
   1 8628
   1 8629
   2 8630
   3 8634
   1 8636
   2 8639
   1 8640
   2 8645
   2 8646
   2 8647
   1 8649
   1 8652
   2 8653
   1 8654
   1 8655
   1 8659
   1 8660
   2 8663
   1 8669
   1 8672
   1 8677
   1 8679
   1 8681
   1 8683
   1 8684
   1 8685
   1 8695
   1 8696
   1 8699
   1 8700
   1 8702
   3 8703
   1 8707
   1 8711
   1 8712
   3 8713
   1 8716
   1 8718
   2 8719
   2 8721
   1 8723
   1 8726
   1 8728
   1 8729
   1 8730
   1 8734
   1 8736
   3 8737
   2 8741
   1 8744
   2 8745
   1 8746
   2 8747
   1 8748
   2 8751
   1 8752
   1 8756
   1 8758
   1 8761
   1 8762
   1 8763
   1 8764
   2 8766
   1 8770
   1 8774
   1 8776
   1 8777
   1 8778
   1 8780
   1 8784
   2 8786
   1 8793
   1 8799
   1 8800
   1 8802
   2 8808
   1 8812
   1 8813
   1 8817
   2 8818
   1 8819
   1 8821
   1 8822
   1 8824
   1 8826
   2 8828
   2 8830
   1 8834
   1 8836
   1 8837
   2 8838
   1 8839
   1 8840
   1 8844
   1 8848
   2 8849
   1 8853
   1 8859
   1 8861
   1 8864
   1 8865
   1 8866
   1 8867
   1 8868
   1 8869
   1 8878
   1 8881
   1 8882
   2 8883
   1 8884
   1 8886
   1 8887
   1 8889
   1 8892
   2 8894
   1 8897
   1 8898
   1 8900
   1 8903
   3 8905
   1 8907
   1 8908
   1 8909
   3 8910
   1 8911
   1 8913
   1 8915
   2 8916
   2 8923
   3 8925
   1 8927
   1 8929
   3 8931
   1 8932
   1 8934
   1 8935
   3 8937
   1 8938
   1 8940
   2 8944
   1 8946
   1 8951
   1 8953
   1 8956
   1 8962
   1 8965
   1 8966
   1 8967
   2 8969
   1 8970
   1 8971
   1 8983
   1 8987
   1 8989
   1 8993
   1 8997
   1 8998
   1 9001
   1 9003
   1 9011
   2 9012
   1 9013
   1 9015
   2 9021
   1 9024
   1 9028
   1 9029
   1 9030
   1 9031
   2 9039
   1 9040
   1 9042
   1 9043
   2 9044
   1 9047
   1 9049
   1 9051
   1 9059
   3 9060
   1 9073
   1 9076
   1 9079
   1 9082
   1 9085
   1 9088
   1 9090
   1 9101
   2 9102
   1 9105
   1 9108
   1 9110
   1 9114
   1 9120
   1 9123
   2 9124
   1 9131
   1 9138
   1 9145
   1 9146
   2 9149
   1 9152
   1 9153
   1 9154
   1 9155
   1 9157
   1 9158
   1 9159
   2 9166
   2 9168
   1 9169
   1 9170
   1 9178
   1 9179
   1 9180
   1 9183
   1 9185
   2 9186
   1 9191
   2 9193
   1 9196
   2 9197
   2 9198
   1 9203
   1 9204
   1 9206
   2 9207
   3 9209
   1 9211
   1 9212
   2 9214
   2 9218
   1 9221
   1 9222
   1 9229
   1 9231
   1 9235
   1 9236
   1 9240
   1 9244
   2 9245
   1 9249
   1 9252
   1 9259
   1 9265
   1 9270
   1 9272
   1 9273
   1 9275
   1 9278
   1 9282
   2 9284
   1 9285
   3 9286
   1 9288
   1 9289
   1 9291
   2 9292
   1 9293
   2 9295
   1 9297
   1 9299
   1 9301
   1 9305
   2 9308
   1 9314
   2 9318
   1 9319
   1 9321
   1 9327
   1 9329
   2 9330
   1 9332
   1 9333
   2 9338
   1 9347
   1 9352
   1 9354
   1 9361
   1 9364
   2 9366
   1 9372
   1 9373
   1 9376
   1 9382
   1 9384
   1 9388
   2 9389
   2 9391
   1 9394
   1 9399
   1 9405
   1 9409
   2 9410
   1 9415
   1 9416
   1 9417
   1 9420
   1 9425
   1 9427
   1 9429
   1 9432
   2 9440
   1 9441
   1 9442
   1 9445
   1 9446
   1 9447
   1 9449
   2 9450
   1 9451
   2 9457
   1 9458
   1 9461
   1 9468
   1 9472
   1 9474
   1 9478
   1 9482
   1 9484
   1 9486
   2 9489
   1 9493
   1 9495
   1 9499
   1 9503
   1 9507
   1 9512
   1 9520
   1 9521
   1 9522
   1 9525
   2 9537
   1 9541
   1 9542
   1 9544
   1 9546
   1 9551
   1 9552
   1 9554
   2 9558
   3 9564
   1 9568
   1 9577
   1 9582
   1 9586
   1 9592
   2 9595
   1 9596
   1 9609
   2 9620
   2 9630
   1 9638
   1 9642
   1 9646
   1 9647
   1 9648
   1 9650
   2 9655
   2 9660
   1 9665
   1 9666
   1 9668
   1 9669
   1 9678
   1 9679
   2 9681
   1 9682
   2 9683
   1 9690
   1 9694
   1 9701
   1 9709
   1 9711
   1 9716
   2 9721
   1 9723
   1 9724
   1 9729
   1 9732
   1 9743
   1 9746
   1 9749
   1 9750
   1 9753
   1 9759
   1 9762
   1 9782
   1 9791
   1 9794
   1 9796
   1 9802
   2 9804
   1 9807
   1 9808
   1 9811
   1 9814
   1 9815
   1 9816
   1 9818
   1 9822
   1 9828
   1 9835
   1 9836
   1 9837
   1 9842
   1 9843
   1 9845
   3 9847
   1 9849
   1 9865
   1 9866
   1 9867
   1 9871
   2 9872
   1 9875
   1 9877
   1 9884
   1 9889
   2 9891
   1 9897
   1 9900
   2 9903
   1 9905
   1 9910
   1 9912
   1 9924
   1 9927
   2 9935
   1 9936
   1 9943
   1 9944
   3 9947
   2 9959
   1 9966
   1 9968
   1 9973
   1 9974
   1 9979
   1 9981
   1 9982
   1 9984
   1 9991
   2 9992
   1 9993
   1 9995
   1 9996
   1 9999
   1 10000
   1 10004
   1 10012
   1 10030
   1 10038
   1 10043
   1 10047
   1 10066
   1 10068
   1 10077
   2 10081
   1 10083
   1 10085
   1 10086
   1 10090
   1 10093
   1 10095
   1 10103
   1 10109
   1 10118
   1 10119
   1 10121
   1 10129
   1 10131
   1 10134
   1 10137
   2 10140
   1 10141
   1 10145
   1 10148
   2 10149
   1 10150
   1 10153
   1 10161
   1 10174
   1 10182
   1 10185
   1 10189
   1 10192
   1 10203
   1 10208
   1 10213
   1 10214
   1 10219
   1 10220
   1 10227
   1 10230
   1 10231
   1 10232
   1 10235
   1 10240
   1 10249
   1 10253
   1 10255
   1 10259
   1 10270
   1 10282
   1 10286
   1 10292
   1 10297
   1 10308
   1 10309
   1 10311
   1 10318
   1 10324
   1 10334
   1 10335
   1 10347
   1 10348
   2 10351
   1 10356
   1 10364
   1 10369
   1 10379
   1 10396
   1 10397
   1 10416
   1 10426
   1 10434
   1 10442
   1 10449
   1 10451
   1 10453
   1 10463
   2 10472
   1 10473
   1 10476
   1 10483
   1 10484
   1 10495
   1 10498
   2 10499
   1 10503
   1 10512
   1 10519
   1 10521
   1 10534
   2 10564
   1 10567
   1 10572
   1 10579
   1 10580
   1 10594
   3 10601
   1 10603
   2 10609
   1 10622
   1 10627
   1 10634
   1 10635
   1 10646
   1 10653
   1 10655
   1 10657
   1 10663
   1 10668
   1 10673
   1 10682
   2 10686
   1 10694
   1 10695
   1 10702
   1 10703
   2 10706
   2 10714
   1 10717
   2 10727
   1 10729
   1 10731
   1 10735
   1 10736
   1 10737
   1 10738
   2 10750
   1 10758
   1 10759
   1 10760
   2 10764
   1 10768
   1 10769
   1 10776
   1 10780
   1 10781
   1 10782
   1 10786
   1 10789
   1 10795
   1 10798
   1 10799
   1 10803
   1 10804
   1 10822
   1 10826
   1 10827
   1 10828
   1 10833
   1 10841
   1 10846
   2 10848
   1 10860
   1 10862
   1 10867
   1 10869
   1 10872
   1 10876
   1 10877
   1 10882
   2 10890
   1 10893
   1 10899
   1 10908
   1 10919
   1 10920
   1 10924
   1 10934
   2 10938
   1 10939
   1 10943
   1 10952
   2 10963
   1 10964
   1 10971
   1 11004
   1 11021
   1 11024
   1 11025
   1 11028
   1 11032
   1 11035
   1 11049
   1 11052
   1 11054
   1 11061
   1 11067
   1 11071
   1 11081
   1 11084
   1 11085
   1 11086
   1 11088
   1 11100
   1 11102
   1 11103
   1 11104
   1 11119
   1 11134
   1 11135
   1 11139
   1 11147
   1 11148
   1 11151
   1 11152
   1 11155
   1 11170
   1 11173
   1 11181
   1 11183
   1 11184
   1 11212
   1 11216
   1 11219
   1 11223
   1 11227
   1 11230
   1 11232
   1 11234
   1 11235
   1 11241
   1 11253
   1 11258
   1 11268
   2 11271
   1 11275
   1 11280
   1 11286
   1 11293
   1 11297
   2 11298
   1 11299
   1 11304
   1 11305
   1 11316
   1 11342
   1 11361
   1 11362
   1 11367
   1 11373
   3 11377
   1 11388
   1 11395
   1 11408
   2 11410
   1 11437
   1 11438
   1 11441
   1 11457
   1 11470
   1 11474
   1 11481
   1 11494
   1 11495
   1 11496
   1 11507
   1 11515
   1 11527
   1 11528
   1 11529
   1 11546
   2 11559
   1 11565
   1 11579
   1 11581
   1 11585
   1 11596
   1 11611
   1 11612
   1 11621
   2 11635
   1 11637
   1 11638
   2 11646
   1 11648
   1 11664
   1 11675
   1 11679
   1 11681
   1 11685
   1 11697
   1 11704
   1 11725
   1 11745
   1 11758
   1 11772
   1 11773
   2 11785
   1 11792
   1 11800
   1 11807
   1 11813
   1 11823
   1 11830
   1 11836
   1 11837
   1 11842
   1 11843
   1 11844
   1 11846
   1 11861
   1 11873
   1 11882
   1 11892
   1 11909
   1 11919
   1 11922
   1 11923
   1 11936
   1 11941
   1 11975
   1 11991
   1 11993
   1 12001
   1 12005
   1 12007
   1 12017
   1 12038
   1 12040
   1 12041
   1 12043
   1 12059
   1 12061
   1 12064
   1 12094
   1 12102
   1 12109
   1 12118
   1 12123
   1 12166
   1 12167
   1 12190
   1 12202
   1 12223
   1 12251
   1 12278
   1 12286
   1 12287
   1 12294
   1 12295
   1 12298
   1 12309
   1 12316
   1 12322
   1 12350
   1 12353
   1 12356
   1 12361
   1 12372
   1 12377
   1 12380
   1 12382
   1 12413
   1 12436
   1 12459
   1 12480
   1 12481
   1 12493
   1 12505
   1 12518
   1 12529
   1 12533
   1 12542
   1 12544
   1 12568
   1 12573
   1 12591
   1 12623
   1 12624
   1 12634
   1 12635
   1 12671
   1 12678
   1 12681
   1 12703
   1 12711
   1 12715
   1 12731
   1 12738
   1 12740
   1 12760
   1 12822
   1 12825
   1 12827
   1 12848
   1 12855
   1 12861
   1 12886
   1 12893
   1 12894
   1 12896
   1 12897
   2 12904
   1 12915
   1 12927
   1 12948
   1 12993
   1 12998
   1 13002
   1 13005
   1 13011
   1 13019
   1 13049
   1 13068
   1 13071
   1 13107
   1 13127
   1 13146
   1 13150
   1 13198
   1 13240
   1 13245
   1 13247
   1 13294
   1 13323
   1 13330
   1 13362
   1 13370
   1 13393
   1 13400
   1 13424
   1 13450
   1 13458
   1 13471
   1 13477
   1 13498
   1 13508
   1 13554
   1 13588
   1 13593
   1 13602
   1 13604
   1 13631
   1 13646
   1 13647
   1 13664
   1 13670
   1 13682
   1 13693
   1 13697
   1 13713
   1 13717
   1 13742
   1 13748
   1 13799
   1 13812
   1 13835
   1 13862
   1 13905
   1 13996
   1 14038
   1 14046
   1 14060
   1 14083
   1 14098
   1 14110
   1 14117
   1 14128
   1 14135
   1 14154
   1 14190
   1 14212
   1 14218
   1 14223
   1 14228
   1 14258
   1 14273
   1 14285
   1 14299
   1 14309
   1 14318
   1 14332
   1 14337
   1 14420
   1 14441
   1 14452
   1 14472
   1 14479
   1 14499
   1 14537
   1 14655
   1 14736
   1 14749
   1 14759
   1 14766
   1 14783
   1 14830
   1 14833
   1 14867
   1 14945
   1 15032
   1 15075
   1 15095
   1 15099
   1 15108
   1 15192
   1 15201
   1 15285
   1 15287
   1 15307
   1 15370
   1 15495
   1 15514
   1 15525
   1 15547
   1 15629
   1 15649
   1 15674
   1 15704
   1 15709
   1 15867
   1 15944
   1 15987
   1 16146
   1 16155
   1 16163
   1 16195
   1 16249
   1 16301
   1 16397
   1 16584
   1 16770
   1 16862
   1 16945
   1 17121
   1 17237
   1 17255
   1 17458
   1 17459
   1 17484
   1 17616
   1 17671
   1 17893
   1 18011
   1 18021
   1 18110
   1 18149
   1 18240
   1 18285
   1 18546
   1 18880
   1 18979
   1 18986
   1 19139
   1 19147
   1 19490
   1 19677
   1 19974
   1 20265
   1 20338
   1 20852
   1 20954
   1 21117
   1 21221
   1 21318
   1 21338
   1 21541
   1 22293
   1 23822
   1 24301
   1 28503
   1 55038
